%!PS-Adobe-2.0 EPSF-2.0
%%Title: Switcheroo.eps
%%Creator: gnuplot 4.6 patchlevel 4
%%CreationDate: Mon Sep 15 12:45:24 2014
%%DocumentFonts: (atend)
%%BoundingBox: 50 50 410 302
%%EndComments
%%BeginProlog
/gnudict 256 dict def
gnudict begin
%
% The following true/false flags may be edited by hand if desired.
% The unit line width and grayscale image gamma correction may also be changed.
%
/Color true def
/Blacktext false def
/Solid false def
/Dashlength 1 def
/Landscape false def
/Level1 false def
/Rounded false def
/ClipToBoundingBox false def
/SuppressPDFMark false def
/TransparentPatterns false def
/gnulinewidth 20.000 def
/userlinewidth gnulinewidth def
/Gamma 1.0 def
/BackgroundColor {-1.000 -1.000 -1.000} def
%
/vshift -80 def
/dl1 {
  10.0 Dashlength mul mul
  Rounded { currentlinewidth 0.75 mul sub dup 0 le { pop 0.01 } if } if
} def
/dl2 {
  10.0 Dashlength mul mul
  Rounded { currentlinewidth 0.75 mul add } if
} def
/hpt_ 31.5 def
/vpt_ 31.5 def
/hpt hpt_ def
/vpt vpt_ def
/doclip {
  ClipToBoundingBox {
    newpath 50 50 moveto 410 50 lineto 410 302 lineto 50 302 lineto closepath
    clip
  } if
} def
%
% Gnuplot Prolog Version 4.6 (September 2012)
%
%/SuppressPDFMark true def
%
/M {moveto} bind def
/L {lineto} bind def
/R {rmoveto} bind def
/V {rlineto} bind def
/N {newpath moveto} bind def
/Z {closepath} bind def
/C {setrgbcolor} bind def
/f {rlineto fill} bind def
/g {setgray} bind def
/Gshow {show} def   % May be redefined later in the file to support UTF-8
/vpt2 vpt 2 mul def
/hpt2 hpt 2 mul def
/Lshow {currentpoint stroke M 0 vshift R 
	Blacktext {gsave 0 setgray show grestore} {show} ifelse} def
/Rshow {currentpoint stroke M dup stringwidth pop neg vshift R
	Blacktext {gsave 0 setgray show grestore} {show} ifelse} def
/Cshow {currentpoint stroke M dup stringwidth pop -2 div vshift R 
	Blacktext {gsave 0 setgray show grestore} {show} ifelse} def
/UP {dup vpt_ mul /vpt exch def hpt_ mul /hpt exch def
  /hpt2 hpt 2 mul def /vpt2 vpt 2 mul def} def
/DL {Color {setrgbcolor Solid {pop []} if 0 setdash}
 {pop pop pop 0 setgray Solid {pop []} if 0 setdash} ifelse} def
/BL {stroke userlinewidth 2 mul setlinewidth
	Rounded {1 setlinejoin 1 setlinecap} if} def
/AL {stroke userlinewidth 2 div setlinewidth
	Rounded {1 setlinejoin 1 setlinecap} if} def
/UL {dup gnulinewidth mul /userlinewidth exch def
	dup 1 lt {pop 1} if 10 mul /udl exch def} def
/PL {stroke userlinewidth setlinewidth
	Rounded {1 setlinejoin 1 setlinecap} if} def
3.8 setmiterlimit
% Default Line colors
/LCw {1 1 1} def
/LCb {0 0 0} def
/LCa {0 0 0} def
/LC0 {1 0 0} def
/LC1 {0 1 0} def
/LC2 {0 0 1} def
/LC3 {1 0 1} def
/LC4 {0 1 1} def
/LC5 {1 1 0} def
/LC6 {0 0 0} def
/LC7 {1 0.3 0} def
/LC8 {0.5 0.5 0.5} def
% Default Line Types
/LTw {PL [] 1 setgray} def
/LTb {BL [] LCb DL} def
/LTa {AL [1 udl mul 2 udl mul] 0 setdash LCa setrgbcolor} def
/LT0 {PL [] LC0 DL} def
/LT1 {PL [4 dl1 2 dl2] LC1 DL} def
/LT2 {PL [2 dl1 3 dl2] LC2 DL} def
/LT3 {PL [1 dl1 1.5 dl2] LC3 DL} def
/LT4 {PL [6 dl1 2 dl2 1 dl1 2 dl2] LC4 DL} def
/LT5 {PL [3 dl1 3 dl2 1 dl1 3 dl2] LC5 DL} def
/LT6 {PL [2 dl1 2 dl2 2 dl1 6 dl2] LC6 DL} def
/LT7 {PL [1 dl1 2 dl2 6 dl1 2 dl2 1 dl1 2 dl2] LC7 DL} def
/LT8 {PL [2 dl1 2 dl2 2 dl1 2 dl2 2 dl1 2 dl2 2 dl1 4 dl2] LC8 DL} def
/Pnt {stroke [] 0 setdash gsave 1 setlinecap M 0 0 V stroke grestore} def
/Dia {stroke [] 0 setdash 2 copy vpt add M
  hpt neg vpt neg V hpt vpt neg V
  hpt vpt V hpt neg vpt V closepath stroke
  Pnt} def
/Pls {stroke [] 0 setdash vpt sub M 0 vpt2 V
  currentpoint stroke M
  hpt neg vpt neg R hpt2 0 V stroke
 } def
/Box {stroke [] 0 setdash 2 copy exch hpt sub exch vpt add M
  0 vpt2 neg V hpt2 0 V 0 vpt2 V
  hpt2 neg 0 V closepath stroke
  Pnt} def
/Crs {stroke [] 0 setdash exch hpt sub exch vpt add M
  hpt2 vpt2 neg V currentpoint stroke M
  hpt2 neg 0 R hpt2 vpt2 V stroke} def
/TriU {stroke [] 0 setdash 2 copy vpt 1.12 mul add M
  hpt neg vpt -1.62 mul V
  hpt 2 mul 0 V
  hpt neg vpt 1.62 mul V closepath stroke
  Pnt} def
/Star {2 copy Pls Crs} def
/BoxF {stroke [] 0 setdash exch hpt sub exch vpt add M
  0 vpt2 neg V hpt2 0 V 0 vpt2 V
  hpt2 neg 0 V closepath fill} def
/TriUF {stroke [] 0 setdash vpt 1.12 mul add M
  hpt neg vpt -1.62 mul V
  hpt 2 mul 0 V
  hpt neg vpt 1.62 mul V closepath fill} def
/TriD {stroke [] 0 setdash 2 copy vpt 1.12 mul sub M
  hpt neg vpt 1.62 mul V
  hpt 2 mul 0 V
  hpt neg vpt -1.62 mul V closepath stroke
  Pnt} def
/TriDF {stroke [] 0 setdash vpt 1.12 mul sub M
  hpt neg vpt 1.62 mul V
  hpt 2 mul 0 V
  hpt neg vpt -1.62 mul V closepath fill} def
/DiaF {stroke [] 0 setdash vpt add M
  hpt neg vpt neg V hpt vpt neg V
  hpt vpt V hpt neg vpt V closepath fill} def
/Pent {stroke [] 0 setdash 2 copy gsave
  translate 0 hpt M 4 {72 rotate 0 hpt L} repeat
  closepath stroke grestore Pnt} def
/PentF {stroke [] 0 setdash gsave
  translate 0 hpt M 4 {72 rotate 0 hpt L} repeat
  closepath fill grestore} def
/Circle {stroke [] 0 setdash 2 copy
  hpt 0 360 arc stroke Pnt} def
/CircleF {stroke [] 0 setdash hpt 0 360 arc fill} def
/C0 {BL [] 0 setdash 2 copy moveto vpt 90 450 arc} bind def
/C1 {BL [] 0 setdash 2 copy moveto
	2 copy vpt 0 90 arc closepath fill
	vpt 0 360 arc closepath} bind def
/C2 {BL [] 0 setdash 2 copy moveto
	2 copy vpt 90 180 arc closepath fill
	vpt 0 360 arc closepath} bind def
/C3 {BL [] 0 setdash 2 copy moveto
	2 copy vpt 0 180 arc closepath fill
	vpt 0 360 arc closepath} bind def
/C4 {BL [] 0 setdash 2 copy moveto
	2 copy vpt 180 270 arc closepath fill
	vpt 0 360 arc closepath} bind def
/C5 {BL [] 0 setdash 2 copy moveto
	2 copy vpt 0 90 arc
	2 copy moveto
	2 copy vpt 180 270 arc closepath fill
	vpt 0 360 arc} bind def
/C6 {BL [] 0 setdash 2 copy moveto
	2 copy vpt 90 270 arc closepath fill
	vpt 0 360 arc closepath} bind def
/C7 {BL [] 0 setdash 2 copy moveto
	2 copy vpt 0 270 arc closepath fill
	vpt 0 360 arc closepath} bind def
/C8 {BL [] 0 setdash 2 copy moveto
	2 copy vpt 270 360 arc closepath fill
	vpt 0 360 arc closepath} bind def
/C9 {BL [] 0 setdash 2 copy moveto
	2 copy vpt 270 450 arc closepath fill
	vpt 0 360 arc closepath} bind def
/C10 {BL [] 0 setdash 2 copy 2 copy moveto vpt 270 360 arc closepath fill
	2 copy moveto
	2 copy vpt 90 180 arc closepath fill
	vpt 0 360 arc closepath} bind def
/C11 {BL [] 0 setdash 2 copy moveto
	2 copy vpt 0 180 arc closepath fill
	2 copy moveto
	2 copy vpt 270 360 arc closepath fill
	vpt 0 360 arc closepath} bind def
/C12 {BL [] 0 setdash 2 copy moveto
	2 copy vpt 180 360 arc closepath fill
	vpt 0 360 arc closepath} bind def
/C13 {BL [] 0 setdash 2 copy moveto
	2 copy vpt 0 90 arc closepath fill
	2 copy moveto
	2 copy vpt 180 360 arc closepath fill
	vpt 0 360 arc closepath} bind def
/C14 {BL [] 0 setdash 2 copy moveto
	2 copy vpt 90 360 arc closepath fill
	vpt 0 360 arc} bind def
/C15 {BL [] 0 setdash 2 copy vpt 0 360 arc closepath fill
	vpt 0 360 arc closepath} bind def
/Rec {newpath 4 2 roll moveto 1 index 0 rlineto 0 exch rlineto
	neg 0 rlineto closepath} bind def
/Square {dup Rec} bind def
/Bsquare {vpt sub exch vpt sub exch vpt2 Square} bind def
/S0 {BL [] 0 setdash 2 copy moveto 0 vpt rlineto BL Bsquare} bind def
/S1 {BL [] 0 setdash 2 copy vpt Square fill Bsquare} bind def
/S2 {BL [] 0 setdash 2 copy exch vpt sub exch vpt Square fill Bsquare} bind def
/S3 {BL [] 0 setdash 2 copy exch vpt sub exch vpt2 vpt Rec fill Bsquare} bind def
/S4 {BL [] 0 setdash 2 copy exch vpt sub exch vpt sub vpt Square fill Bsquare} bind def
/S5 {BL [] 0 setdash 2 copy 2 copy vpt Square fill
	exch vpt sub exch vpt sub vpt Square fill Bsquare} bind def
/S6 {BL [] 0 setdash 2 copy exch vpt sub exch vpt sub vpt vpt2 Rec fill Bsquare} bind def
/S7 {BL [] 0 setdash 2 copy exch vpt sub exch vpt sub vpt vpt2 Rec fill
	2 copy vpt Square fill Bsquare} bind def
/S8 {BL [] 0 setdash 2 copy vpt sub vpt Square fill Bsquare} bind def
/S9 {BL [] 0 setdash 2 copy vpt sub vpt vpt2 Rec fill Bsquare} bind def
/S10 {BL [] 0 setdash 2 copy vpt sub vpt Square fill 2 copy exch vpt sub exch vpt Square fill
	Bsquare} bind def
/S11 {BL [] 0 setdash 2 copy vpt sub vpt Square fill 2 copy exch vpt sub exch vpt2 vpt Rec fill
	Bsquare} bind def
/S12 {BL [] 0 setdash 2 copy exch vpt sub exch vpt sub vpt2 vpt Rec fill Bsquare} bind def
/S13 {BL [] 0 setdash 2 copy exch vpt sub exch vpt sub vpt2 vpt Rec fill
	2 copy vpt Square fill Bsquare} bind def
/S14 {BL [] 0 setdash 2 copy exch vpt sub exch vpt sub vpt2 vpt Rec fill
	2 copy exch vpt sub exch vpt Square fill Bsquare} bind def
/S15 {BL [] 0 setdash 2 copy Bsquare fill Bsquare} bind def
/D0 {gsave translate 45 rotate 0 0 S0 stroke grestore} bind def
/D1 {gsave translate 45 rotate 0 0 S1 stroke grestore} bind def
/D2 {gsave translate 45 rotate 0 0 S2 stroke grestore} bind def
/D3 {gsave translate 45 rotate 0 0 S3 stroke grestore} bind def
/D4 {gsave translate 45 rotate 0 0 S4 stroke grestore} bind def
/D5 {gsave translate 45 rotate 0 0 S5 stroke grestore} bind def
/D6 {gsave translate 45 rotate 0 0 S6 stroke grestore} bind def
/D7 {gsave translate 45 rotate 0 0 S7 stroke grestore} bind def
/D8 {gsave translate 45 rotate 0 0 S8 stroke grestore} bind def
/D9 {gsave translate 45 rotate 0 0 S9 stroke grestore} bind def
/D10 {gsave translate 45 rotate 0 0 S10 stroke grestore} bind def
/D11 {gsave translate 45 rotate 0 0 S11 stroke grestore} bind def
/D12 {gsave translate 45 rotate 0 0 S12 stroke grestore} bind def
/D13 {gsave translate 45 rotate 0 0 S13 stroke grestore} bind def
/D14 {gsave translate 45 rotate 0 0 S14 stroke grestore} bind def
/D15 {gsave translate 45 rotate 0 0 S15 stroke grestore} bind def
/DiaE {stroke [] 0 setdash vpt add M
  hpt neg vpt neg V hpt vpt neg V
  hpt vpt V hpt neg vpt V closepath stroke} def
/BoxE {stroke [] 0 setdash exch hpt sub exch vpt add M
  0 vpt2 neg V hpt2 0 V 0 vpt2 V
  hpt2 neg 0 V closepath stroke} def
/TriUE {stroke [] 0 setdash vpt 1.12 mul add M
  hpt neg vpt -1.62 mul V
  hpt 2 mul 0 V
  hpt neg vpt 1.62 mul V closepath stroke} def
/TriDE {stroke [] 0 setdash vpt 1.12 mul sub M
  hpt neg vpt 1.62 mul V
  hpt 2 mul 0 V
  hpt neg vpt -1.62 mul V closepath stroke} def
/PentE {stroke [] 0 setdash gsave
  translate 0 hpt M 4 {72 rotate 0 hpt L} repeat
  closepath stroke grestore} def
/CircE {stroke [] 0 setdash 
  hpt 0 360 arc stroke} def
/Opaque {gsave closepath 1 setgray fill grestore 0 setgray closepath} def
/DiaW {stroke [] 0 setdash vpt add M
  hpt neg vpt neg V hpt vpt neg V
  hpt vpt V hpt neg vpt V Opaque stroke} def
/BoxW {stroke [] 0 setdash exch hpt sub exch vpt add M
  0 vpt2 neg V hpt2 0 V 0 vpt2 V
  hpt2 neg 0 V Opaque stroke} def
/TriUW {stroke [] 0 setdash vpt 1.12 mul add M
  hpt neg vpt -1.62 mul V
  hpt 2 mul 0 V
  hpt neg vpt 1.62 mul V Opaque stroke} def
/TriDW {stroke [] 0 setdash vpt 1.12 mul sub M
  hpt neg vpt 1.62 mul V
  hpt 2 mul 0 V
  hpt neg vpt -1.62 mul V Opaque stroke} def
/PentW {stroke [] 0 setdash gsave
  translate 0 hpt M 4 {72 rotate 0 hpt L} repeat
  Opaque stroke grestore} def
/CircW {stroke [] 0 setdash 
  hpt 0 360 arc Opaque stroke} def
/BoxFill {gsave Rec 1 setgray fill grestore} def
/Density {
  /Fillden exch def
  currentrgbcolor
  /ColB exch def /ColG exch def /ColR exch def
  /ColR ColR Fillden mul Fillden sub 1 add def
  /ColG ColG Fillden mul Fillden sub 1 add def
  /ColB ColB Fillden mul Fillden sub 1 add def
  ColR ColG ColB setrgbcolor} def
/BoxColFill {gsave Rec PolyFill} def
/PolyFill {gsave Density fill grestore grestore} def
/h {rlineto rlineto rlineto gsave closepath fill grestore} bind def
%
% PostScript Level 1 Pattern Fill routine for rectangles
% Usage: x y w h s a XX PatternFill
%	x,y = lower left corner of box to be filled
%	w,h = width and height of box
%	  a = angle in degrees between lines and x-axis
%	 XX = 0/1 for no/yes cross-hatch
%
/PatternFill {gsave /PFa [ 9 2 roll ] def
  PFa 0 get PFa 2 get 2 div add PFa 1 get PFa 3 get 2 div add translate
  PFa 2 get -2 div PFa 3 get -2 div PFa 2 get PFa 3 get Rec
  TransparentPatterns {} {gsave 1 setgray fill grestore} ifelse
  clip
  currentlinewidth 0.5 mul setlinewidth
  /PFs PFa 2 get dup mul PFa 3 get dup mul add sqrt def
  0 0 M PFa 5 get rotate PFs -2 div dup translate
  0 1 PFs PFa 4 get div 1 add floor cvi
	{PFa 4 get mul 0 M 0 PFs V} for
  0 PFa 6 get ne {
	0 1 PFs PFa 4 get div 1 add floor cvi
	{PFa 4 get mul 0 2 1 roll M PFs 0 V} for
 } if
  stroke grestore} def
%
/languagelevel where
 {pop languagelevel} {1} ifelse
 2 lt
	{/InterpretLevel1 true def}
	{/InterpretLevel1 Level1 def}
 ifelse
%
% PostScript level 2 pattern fill definitions
%
/Level2PatternFill {
/Tile8x8 {/PaintType 2 /PatternType 1 /TilingType 1 /BBox [0 0 8 8] /XStep 8 /YStep 8}
	bind def
/KeepColor {currentrgbcolor [/Pattern /DeviceRGB] setcolorspace} bind def
<< Tile8x8
 /PaintProc {0.5 setlinewidth pop 0 0 M 8 8 L 0 8 M 8 0 L stroke} 
>> matrix makepattern
/Pat1 exch def
<< Tile8x8
 /PaintProc {0.5 setlinewidth pop 0 0 M 8 8 L 0 8 M 8 0 L stroke
	0 4 M 4 8 L 8 4 L 4 0 L 0 4 L stroke}
>> matrix makepattern
/Pat2 exch def
<< Tile8x8
 /PaintProc {0.5 setlinewidth pop 0 0 M 0 8 L
	8 8 L 8 0 L 0 0 L fill}
>> matrix makepattern
/Pat3 exch def
<< Tile8x8
 /PaintProc {0.5 setlinewidth pop -4 8 M 8 -4 L
	0 12 M 12 0 L stroke}
>> matrix makepattern
/Pat4 exch def
<< Tile8x8
 /PaintProc {0.5 setlinewidth pop -4 0 M 8 12 L
	0 -4 M 12 8 L stroke}
>> matrix makepattern
/Pat5 exch def
<< Tile8x8
 /PaintProc {0.5 setlinewidth pop -2 8 M 4 -4 L
	0 12 M 8 -4 L 4 12 M 10 0 L stroke}
>> matrix makepattern
/Pat6 exch def
<< Tile8x8
 /PaintProc {0.5 setlinewidth pop -2 0 M 4 12 L
	0 -4 M 8 12 L 4 -4 M 10 8 L stroke}
>> matrix makepattern
/Pat7 exch def
<< Tile8x8
 /PaintProc {0.5 setlinewidth pop 8 -2 M -4 4 L
	12 0 M -4 8 L 12 4 M 0 10 L stroke}
>> matrix makepattern
/Pat8 exch def
<< Tile8x8
 /PaintProc {0.5 setlinewidth pop 0 -2 M 12 4 L
	-4 0 M 12 8 L -4 4 M 8 10 L stroke}
>> matrix makepattern
/Pat9 exch def
/Pattern1 {PatternBgnd KeepColor Pat1 setpattern} bind def
/Pattern2 {PatternBgnd KeepColor Pat2 setpattern} bind def
/Pattern3 {PatternBgnd KeepColor Pat3 setpattern} bind def
/Pattern4 {PatternBgnd KeepColor Landscape {Pat5} {Pat4} ifelse setpattern} bind def
/Pattern5 {PatternBgnd KeepColor Landscape {Pat4} {Pat5} ifelse setpattern} bind def
/Pattern6 {PatternBgnd KeepColor Landscape {Pat9} {Pat6} ifelse setpattern} bind def
/Pattern7 {PatternBgnd KeepColor Landscape {Pat8} {Pat7} ifelse setpattern} bind def
} def
%
%
%End of PostScript Level 2 code
%
/PatternBgnd {
  TransparentPatterns {} {gsave 1 setgray fill grestore} ifelse
} def
%
% Substitute for Level 2 pattern fill codes with
% grayscale if Level 2 support is not selected.
%
/Level1PatternFill {
/Pattern1 {0.250 Density} bind def
/Pattern2 {0.500 Density} bind def
/Pattern3 {0.750 Density} bind def
/Pattern4 {0.125 Density} bind def
/Pattern5 {0.375 Density} bind def
/Pattern6 {0.625 Density} bind def
/Pattern7 {0.875 Density} bind def
} def
%
% Now test for support of Level 2 code
%
Level1 {Level1PatternFill} {Level2PatternFill} ifelse
%
/Symbol-Oblique /Symbol findfont [1 0 .167 1 0 0] makefont
dup length dict begin {1 index /FID eq {pop pop} {def} ifelse} forall
currentdict end definefont pop
Level1 SuppressPDFMark or 
{} {
/SDict 10 dict def
systemdict /pdfmark known not {
  userdict /pdfmark systemdict /cleartomark get put
} if
SDict begin [
  /Title (Switcheroo.eps)
  /Subject (gnuplot plot)
  /Creator (gnuplot 4.6 patchlevel 4)
  /Author (ujjwal)
%  /Producer (gnuplot)
%  /Keywords ()
  /CreationDate (Mon Sep 15 12:45:24 2014)
  /DOCINFO pdfmark
end
} ifelse
end
%%EndProlog
%%Page: 1 1
gnudict begin
gsave
doclip
50 50 translate
0.050 0.050 scale
0 setgray
newpath
(Helvetica) findfont 240 scalefont setfont
BackgroundColor 0 lt 3 1 roll 0 lt exch 0 lt or or not {BackgroundColor C 1.000 0 0 7200.00 5040.00 BoxColFill} if
1.000 UL
LTb
LCb setrgbcolor
888 768 M
63 0 V
5816 0 R
-63 0 V
744 768 M
( 0) Rshow
1.000 UL
LTb
LCb setrgbcolor
888 1337 M
63 0 V
5816 0 R
-63 0 V
-5960 0 R
( 1) Rshow
1.000 UL
LTb
LCb setrgbcolor
888 1906 M
63 0 V
5816 0 R
-63 0 V
-5960 0 R
( 2) Rshow
1.000 UL
LTb
LCb setrgbcolor
888 2475 M
63 0 V
5816 0 R
-63 0 V
-5960 0 R
( 3) Rshow
1.000 UL
LTb
LCb setrgbcolor
888 3044 M
63 0 V
5816 0 R
-63 0 V
-5960 0 R
( 4) Rshow
1.000 UL
LTb
LCb setrgbcolor
888 3613 M
63 0 V
5816 0 R
-63 0 V
-5960 0 R
( 5) Rshow
1.000 UL
LTb
LCb setrgbcolor
888 4182 M
63 0 V
5816 0 R
-63 0 V
-5960 0 R
( 6) Rshow
1.000 UL
LTb
LCb setrgbcolor
888 4751 M
63 0 V
5816 0 R
-63 0 V
-5960 0 R
( 7) Rshow
1.000 UL
LTb
LCb setrgbcolor
888 768 M
0 63 V
0 3920 R
0 -63 V
888 528 M
( 0) Cshow
1.000 UL
LTb
LCb setrgbcolor
2064 768 M
0 63 V
0 3920 R
0 -63 V
0 -4160 R
( 100000) Cshow
1.000 UL
LTb
LCb setrgbcolor
3240 768 M
0 63 V
0 3920 R
0 -63 V
0 -4160 R
( 200000) Cshow
1.000 UL
LTb
LCb setrgbcolor
4415 768 M
0 63 V
0 3920 R
0 -63 V
0 -4160 R
( 300000) Cshow
1.000 UL
LTb
LCb setrgbcolor
5591 768 M
0 63 V
0 3920 R
0 -63 V
0 -4160 R
( 400000) Cshow
1.000 UL
LTb
LCb setrgbcolor
6767 768 M
0 63 V
0 3920 R
0 -63 V
0 -4160 R
( 500000) Cshow
1.000 UL
LTb
LCb setrgbcolor
1.000 UL
LTb
LCb setrgbcolor
888 4751 N
888 768 L
5879 0 V
0 3983 V
-5879 0 V
Z stroke
LCb setrgbcolor
192 2759 M
currentpoint gsave translate -270 rotate 0 0 M
(Average Return) Cshow
grestore
LTb
LCb setrgbcolor
3827 168 M
(Number of Episodes) Cshow
LTb
1.000 UP
1.000 UL
LTb
LCb setrgbcolor
% Begin plot #1
1.000 UL
LT0
1.00 0.00 0.00 C LCb setrgbcolor
5696 1671 M
(Policy Tree) Rshow
LT0
1.00 0.00 0.00 C 5840 1671 M
639 0 V
888 768 M
588 692 V
588 1887 V
588 939 V
588 184 V
588 81 V
587 30 V
588 71 V
588 -9 V
588 57 V
588 26 V
% End plot #1
% Begin plot #2
0.000 UP
stroke
LT0
1.00 0.00 0.00 C 888 768 M
31 0 V
-31 0 R
31 0 V
557 675 R
0 33 V
-31 -33 R
62 0 V
-62 33 R
62 0 V
557 1809 R
0 124 V
-31 -124 R
62 0 V
-62 124 R
62 0 V
557 865 R
0 24 V
-31 -24 R
62 0 V
-62 24 R
62 0 V
557 154 R
0 36 V
-31 -36 R
62 0 V
-62 36 R
62 0 V
557 56 R
0 15 V
-31 -15 R
62 0 V
-62 15 R
62 0 V
556 7 R
0 30 V
-31 -30 R
62 0 V
-62 30 R
62 0 V
557 46 R
0 21 V
-31 -21 R
62 0 V
-62 21 R
62 0 V
557 -31 R
0 22 V
-31 -22 R
62 0 V
-62 22 R
62 0 V
557 38 R
0 15 V
-31 -15 R
62 0 V
-62 15 R
62 0 V
557 7 R
0 23 V
-31 -23 R
31 0 V
-31 23 R
31 0 V
888 768 Pls
1476 1460 Pls
2064 3347 Pls
2652 4286 Pls
3240 4470 Pls
3828 4551 Pls
4415 4581 Pls
5003 4652 Pls
5591 4643 Pls
6179 4700 Pls
6767 4726 Pls
% End plot #2
% Begin plot #3
1.000 UL
LT1
0.00 0.00 1.00 C LCb setrgbcolor
5696 1431 M
(Policy Tree \(Approx\)) Rshow
LT1
0.00 0.00 1.00 C 5840 1431 M
639 0 V
888 768 M
588 692 V
588 1575 V
588 911 V
588 273 V
588 75 V
587 97 V
588 81 V
588 53 V
588 64 V
588 2 V
% End plot #3
% Begin plot #4
0.000 UP
stroke
LT1
0.00 0.00 1.00 C 888 768 M
31 0 V
-31 0 R
31 0 V
557 675 R
0 33 V
-31 -33 R
62 0 V
-62 33 R
62 0 V
557 1470 R
0 177 V
-31 -177 R
62 0 V
-62 177 R
62 0 V
557 734 R
0 178 V
-31 -178 R
62 0 V
-62 178 R
62 0 V
557 119 R
0 129 V
-31 -129 R
62 0 V
-62 129 R
62 0 V
557 -56 R
0 133 V
-31 -133 R
62 0 V
-62 133 R
62 0 V
556 -31 R
0 123 V
-31 -123 R
62 0 V
-62 123 R
62 0 V
557 -40 R
0 119 V
-31 -119 R
62 0 V
-62 119 R
62 0 V
557 -56 R
0 99 V
-31 -99 R
62 0 V
-62 99 R
62 0 V
557 -26 R
0 83 V
-31 -83 R
62 0 V
-62 83 R
62 0 V
557 -78 R
0 76 V
-31 -76 R
31 0 V
-31 76 R
31 0 V
888 768 Crs
1476 1460 Crs
2064 3035 Crs
2652 3946 Crs
3240 4219 Crs
3828 4294 Crs
4415 4391 Crs
5003 4472 Crs
5591 4525 Crs
6179 4589 Crs
6767 4591 Crs
% End plot #4
% Begin plot #5
1.000 UL
LT2
0.00 1.00 1.00 C LCb setrgbcolor
5696 1191 M
(Random Splits) Rshow
LT2
0.00 1.00 1.00 C 5840 1191 M
639 0 V
888 768 M
588 692 V
588 1417 V
588 800 V
588 189 V
588 158 V
587 57 V
588 55 V
588 34 V
588 12 V
588 11 V
% End plot #5
% Begin plot #6
0.000 UP
stroke
LT2
0.00 1.00 1.00 C 888 768 M
31 0 V
-31 0 R
31 0 V
557 675 R
0 33 V
-31 -33 R
62 0 V
-62 33 R
62 0 V
557 1315 R
0 173 V
-31 -173 R
62 0 V
-62 173 R
62 0 V
557 673 R
0 80 V
-31 -80 R
62 0 V
-62 80 R
62 0 V
557 116 R
0 67 V
-31 -67 R
62 0 V
-62 67 R
62 0 V
557 100 R
0 48 V
-31 -48 R
62 0 V
-62 48 R
62 0 V
556 17 R
0 32 V
-31 -32 R
62 0 V
-62 32 R
62 0 V
557 18 R
0 43 V
-31 -43 R
62 0 V
-62 43 R
62 0 V
557 -6 R
0 37 V
-31 -37 R
62 0 V
-62 37 R
62 0 V
557 -32 R
0 51 V
-31 -51 R
62 0 V
-62 51 R
62 0 V
557 -38 R
0 47 V
-31 -47 R
31 0 V
-31 47 R
31 0 V
888 768 Star
1476 1460 Star
2064 2877 Star
2652 3677 Star
3240 3866 Star
3828 4024 Star
4415 4081 Star
5003 4136 Star
5591 4170 Star
6179 4182 Star
6767 4193 Star
% End plot #6
% Begin plot #7
1.000 UL
LT3
0.00 0.00 0.00 C LCb setrgbcolor
5696 951 M
(Base Policy) Rshow
LT3
0.00 0.00 0.00 C 5840 951 M
639 0 V
888 768 M
588 692 V
588 1391 V
588 817 V
588 198 V
588 115 V
587 39 V
588 79 V
588 30 V
588 12 V
588 37 V
% End plot #7
% Begin plot #8
0.000 UP
stroke
LT3
0.00 0.00 0.00 C 888 768 M
31 0 V
-31 0 R
31 0 V
557 676 R
0 32 V
-31 -32 R
62 0 V
-62 32 R
62 0 V
557 1294 R
0 161 V
-31 -161 R
62 0 V
-62 161 R
62 0 V
557 670 R
0 134 V
-31 -134 R
62 0 V
-62 134 R
62 0 V
557 59 R
0 144 V
-31 -144 R
62 0 V
-62 144 R
62 0 V
557 19 R
0 49 V
-31 -49 R
62 0 V
-62 49 R
62 0 V
556 -12 R
0 53 V
-31 -53 R
62 0 V
-62 53 R
62 0 V
557 30 R
0 43 V
-31 -43 R
62 0 V
-62 43 R
62 0 V
557 -2 R
0 23 V
-31 -23 R
62 0 V
-62 23 R
62 0 V
557 -15 R
0 30 V
-31 -30 R
62 0 V
-62 30 R
62 0 V
557 -1 R
0 47 V
-31 -47 R
31 0 V
-31 47 R
31 0 V
888 768 Box
1476 1460 Box
2064 2851 Box
2652 3668 Box
3240 3866 Box
3828 3981 Box
4415 4020 Box
5003 4099 Box
5591 4129 Box
6179 4141 Box
6767 4178 Box
% End plot #8
1.000 UL
LTb
LCb setrgbcolor
888 4751 N
888 768 L
5879 0 V
0 3983 V
-5879 0 V
Z stroke
1.000 UP
1.000 UL
LTb
LCb setrgbcolor
stroke
grestore
end
showpage
%%Trailer
%%DocumentFonts: Helvetica
