50000 1.06565 0.110845
100000 1.68179 1.08811
150000 2.88491 1.68836
200000 4.0952 2.04444
250000 5.15113 1.98692
300000 5.48754 2.00727
350000 5.69218 1.95955
400000 5.77204 1.83638
450000 5.93393 1.81142
500000 5.98864 1.77577
