<?xml version="1.0" standalone="no"?>
<!DOCTYPE svg PUBLIC "-//W3C//DTD SVG 20010904//EN" "http://www.w3.org/TR/2001/REC-SVG-20010904/DTD/svg10.dtd">
<!-- Created using Karbon, part of Calligra: http://www.calligra.org/karbon -->
<svg xmlns="http://www.w3.org/2000/svg" xmlns:xlink="http://www.w3.org/1999/xlink" width="340.158pt" height="226.772pt">
<defs>
  <linearGradient id="gradient0" gradientTransform="" gradientUnits="objectBoundingBox" x1="0.00000000000" y1="0.00000000000" x2="1.00000000000" y2="1.00000000000" spreadMethod="pad">
   <stop stop-color="#ffffff" offset="0.00000000000" stop-opacity="1.00000000000"/>
   <stop stop-color="#00ff00" offset="1.00000000000" stop-opacity="1.00000000000"/>
  </linearGradient>
  <linearGradient id="gradient1" gradientTransform="" gradientUnits="objectBoundingBox" x1="0.00000000000" y1="0.00000000000" x2="1.00000000000" y2="1.00000000000" spreadMethod="pad">
   <stop stop-color="#ffffff" offset="0.00000000000" stop-opacity="1.00000000000"/>
   <stop stop-color="#00ff00" offset="1.00000000000" stop-opacity="1.00000000000"/>
  </linearGradient>
  <linearGradient id="gradient2" gradientTransform="" gradientUnits="objectBoundingBox" x1="0.00000000000" y1="0.00000000000" x2="1.00000000000" y2="1.00000000000" spreadMethod="pad">
   <stop stop-color="#ffffff" offset="0.00000000000" stop-opacity="1.00000000000"/>
   <stop stop-color="#00ff00" offset="1.00000000000" stop-opacity="1.00000000000"/>
  </linearGradient>
  <linearGradient id="gradient3" gradientTransform="" gradientUnits="objectBoundingBox" x1="0.00000000000" y1="0.00000000000" x2="1.00000000000" y2="1.00000000000" spreadMethod="pad">
   <stop stop-color="#ffffff" offset="0.00000000000" stop-opacity="1.00000000000"/>
   <stop stop-color="#00ff00" offset="1.00000000000" stop-opacity="1.00000000000"/>
  </linearGradient>
  <linearGradient id="gradient4" gradientTransform="" gradientUnits="objectBoundingBox" x1="0.00000000000" y1="0.00000000000" x2="1.00000000000" y2="1.00000000000" spreadMethod="pad">
   <stop stop-color="#ffffff" offset="0.00000000000" stop-opacity="1.00000000000"/>
   <stop stop-color="#00ff00" offset="1.00000000000" stop-opacity="1.00000000000"/>
  </linearGradient>
  <linearGradient id="gradient5" gradientTransform="" gradientUnits="objectBoundingBox" x1="0.00000000000" y1="0.00000000000" x2="1.00000000000" y2="1.00000000000" spreadMethod="pad">
   <stop stop-color="#ffffff" offset="0.00000000000" stop-opacity="1.00000000000"/>
   <stop stop-color="#00ff00" offset="1.00000000000" stop-opacity="1.00000000000"/>
  </linearGradient>
  <linearGradient id="gradient6" gradientTransform="" gradientUnits="objectBoundingBox" x1="0.00000000000" y1="0.00000000000" x2="1.00000000000" y2="1.00000000000" spreadMethod="pad">
   <stop stop-color="#ffffff" offset="0.00000000000" stop-opacity="1.00000000000"/>
   <stop stop-color="#00ff00" offset="1.00000000000" stop-opacity="1.00000000000"/>
  </linearGradient>
  <linearGradient id="gradient7" gradientTransform="" gradientUnits="objectBoundingBox" x1="0.00000000000" y1="0.00000000000" x2="1.00000000000" y2="1.00000000000" spreadMethod="pad">
   <stop stop-color="#ffffff" offset="0.00000000000" stop-opacity="1.00000000000"/>
   <stop stop-color="#00ff00" offset="1.00000000000" stop-opacity="1.00000000000"/>
  </linearGradient>
  <linearGradient id="gradient8" gradientTransform="" gradientUnits="objectBoundingBox" x1="0.00000000000" y1="0.00000000000" x2="1.00000000000" y2="1.00000000000" spreadMethod="pad">
   <stop stop-color="#ffffff" offset="0.00000000000" stop-opacity="1.00000000000"/>
   <stop stop-color="#00ff00" offset="1.00000000000" stop-opacity="1.00000000000"/>
  </linearGradient>
  <linearGradient id="gradient9" gradientTransform="" gradientUnits="objectBoundingBox" x1="0.00000000000" y1="0.00000000000" x2="1.00000000000" y2="1.00000000000" spreadMethod="pad">
   <stop stop-color="#ffffff" offset="0.00000000000" stop-opacity="1.00000000000"/>
   <stop stop-color="#00ff00" offset="1.00000000000" stop-opacity="1.00000000000"/>
  </linearGradient>
  <linearGradient id="gradient10" gradientTransform="" gradientUnits="objectBoundingBox" x1="0.00000000000" y1="0.00000000000" x2="1.00000000000" y2="1.00000000000" spreadMethod="pad">
   <stop stop-color="#ffffff" offset="0.00000000000" stop-opacity="1.00000000000"/>
   <stop stop-color="#00ff00" offset="1.00000000000" stop-opacity="1.00000000000"/>
  </linearGradient>
 </defs>
<g id="layer0">
  <rect id="shape0" transform="translate(71.2206, 71.2206)" fill="none" stroke="#000000" stroke-width="0.70866264500" stroke-linecap="square" stroke-linejoin="miter" stroke-miterlimit="1.98425540600" stroke-dasharray="0.56693,1.13386" width="226.77204640000pt" height="56.69301160000pt"/>
  <rect id="shape1" transform="translate(70.8663, 71.2206)" fill="url(#gradient0)" fill-rule="evenodd" stroke="#000000" stroke-width="1.25000000000" stroke-linecap="square" stroke-linejoin="miter" stroke-miterlimit="2.00000000000" width="0.28346505800pt" height="113.38602320000pt"/>
  <rect id="shape2" transform="translate(70.8663, 71.2206)" fill="url(#gradient1)" fill-rule="evenodd" stroke="#000000" stroke-width="1.25000000000" stroke-linecap="square" stroke-linejoin="miter" stroke-miterlimit="2.00000000000" width="0.28346505800pt" height="113.38602320000pt"/>
  <rect id="shape3" transform="translate(141.733, 142.087)" fill="url(#gradient2)" fill-rule="evenodd" stroke="#000000" stroke-width="1.25000000000" stroke-linecap="square" stroke-linejoin="miter" stroke-miterlimit="2.00000000000" width="0.28346505800pt" height="56.69301160000pt"/>
  <rect id="shape4" transform="translate(212.599, 71.2206)" fill="url(#gradient3)" fill-rule="evenodd" stroke="#000000" stroke-width="0.70866264500" stroke-linecap="square" stroke-linejoin="miter" stroke-miterlimit="1.98425540600" stroke-dasharray="0.56693,1.13386" width="0.28346505800pt" height="56.69301160000pt"/>
  <rect id="shape5" transform="translate(283.465, 71.2206)" fill="url(#gradient4)" fill-rule="evenodd" stroke="#000000" stroke-width="0.70866264500" stroke-linecap="square" stroke-linejoin="miter" stroke-miterlimit="1.98425540600" stroke-dasharray="0.56693,1.13386" width="0.28346505800pt" height="56.69301160000pt"/>
  <rect id="shape6" transform="translate(71.2206, 70.8663)" fill="url(#gradient5)" fill-rule="evenodd" stroke="#000000" stroke-width="1.25000000000" stroke-linecap="square" stroke-linejoin="miter" stroke-miterlimit="2.00000000000" width="226.77204640000pt" height="0.28346505800pt"/>
  <rect id="shape7" transform="translate(71.2206, 70.8663)" fill="url(#gradient6)" fill-rule="evenodd" stroke="#000000" stroke-width="1.25000000000" stroke-linecap="square" stroke-linejoin="miter" stroke-miterlimit="2.00000000000" width="226.77204640000pt" height="0.28346505800pt"/>
  <rect id="shape8" transform="translate(142.087, 142.087)" fill="url(#gradient7)" fill-rule="evenodd" stroke="#000000" stroke-width="1.25000000000" stroke-linecap="square" stroke-linejoin="miter" stroke-miterlimit="2.00000000000" width="170.07903480000pt" height="0.28346505800pt"/>
  <rect id="shape9" transform="translate(71.2206, 212.953)" fill="url(#gradient8)" fill-rule="evenodd" stroke="#000000" stroke-width="1.25000000000" stroke-linecap="square" stroke-linejoin="miter" stroke-miterlimit="2.00000000000" width="56.69301160000pt" height="0.28346505800pt"/>
  <rect id="shape10" transform="translate(354.686, 71.2206)" fill="url(#gradient9)" fill-rule="evenodd" stroke="#000000" stroke-width="1.25000000000" stroke-linecap="square" stroke-linejoin="miter" stroke-miterlimit="2.00000000000" width="0.28346505800pt" height="56.69301160000pt"/>
  <rect id="shape11" transform="translate(141.733, 71.2206)" fill="url(#gradient10)" fill-rule="evenodd" stroke="#000000" stroke-width="0.70866264500" stroke-linecap="square" stroke-linejoin="miter" stroke-miterlimit="2.00000000000" stroke-dasharray="0.56693,1.13386" width="0.28346505800pt" height="56.69301160000pt"/>
  <path id="shape12" transform="translate(302.496, 89.663)" fill="none" stroke="#000000" stroke-width="1.41732529000" stroke-linecap="square" stroke-linejoin="miter" stroke-miterlimit="1.98425540600" d="M28.666 35.4331L17.7166 29.3804L6.76713 35.4331L8.85828 22.6133L0 13.5343L12.2418 11.6639L17.7166 2.78347e-15L23.1913 11.6639L35.4331 13.5343L26.5748 22.6133Z"/>
  <svg xmlns="http://www.w3.org/2000/svg" xmlns:xlink="http://www.w3.org/1999/xlink"  version="1.2" baseProfile="tiny">
<title>Qt Svg Document</title>
<desc>Generated with Qt</desc>
<defs>
</defs>
<g fill="none" stroke="black" stroke-width="1" fill-rule="evenodd" stroke-linecap="square" stroke-linejoin="bevel" >

<g fill="none" stroke="none" transform="matrix(1,0,0,1,0,0)"
font-family="Ubuntu" font-size="9" font-weight="400" font-style="normal" 
>
</g>

<g fill="none" stroke="none" transform="matrix(1,0,0,1,-2.15264,-0.822192)"
font-family="Ubuntu" font-size="9" font-weight="400" font-style="normal" 
>
</g>

<g fill="none" stroke="none" transform="matrix(1,0,0,1,230,94.0513)"
font-family="Ubuntu" font-size="9" font-weight="400" font-style="normal" 
>
</g>

<g fill="none" stroke="none" transform="matrix(1,0,0,1,230,94.0513)"
font-family="Ubuntu" font-size="9" font-weight="400" font-style="normal" 
>
</g>

<g fill="none" stroke="none" transform="matrix(1.26212,0,0,1.26212,230,94.0513)"
font-family="Ubuntu" font-size="9" font-weight="400" font-style="normal" 
>
</g>

<g fill="none" stroke="none" transform="matrix(1.26212,0,0,1.26212,230,94.0513)"
font-family="Ubuntu" font-size="9" font-weight="400" font-style="normal" 
>
</g>

<g fill="none" stroke="#1f1c1b" stroke-opacity="1" stroke-width="1" stroke-linecap="square" stroke-linejoin="bevel" transform="matrix(1.26212,0,0,1.26212,230,94.0513)"
font-family="Ubuntu" font-size="9" font-weight="400" font-style="normal" 
>
</g>

<g fill="none" stroke="#1f1c1b" stroke-opacity="1" stroke-width="1" stroke-linecap="square" stroke-linejoin="bevel" transform="matrix(1.26212,0,0,1.26212,230,94.0513)"
font-family="Ubuntu" font-size="9" font-weight="400" font-style="normal" 
>
</g>

<g fill="none" stroke="#1f1c1b" stroke-opacity="1" stroke-width="1" stroke-linecap="square" stroke-linejoin="bevel" transform="matrix(1.26212,0,0,1.26212,230,94.0513)"
font-family="Ubuntu" font-size="9" font-weight="400" font-style="normal" 
>
</g>

<g fill="none" stroke="#000000" stroke-opacity="1" stroke-width="1" stroke-linecap="square" stroke-linejoin="bevel" transform="matrix(1.26212,0,0,1.26212,230,94.0513)"
font-family="Ubuntu" font-size="9" font-weight="400" font-style="normal" 
>
<text fill="#000000" fill-opacity="1" stroke="none" xml:space="preserve" x="3.125" y="15" font-family="Sans Serif" font-size="16" font-weight="400" font-style="normal" 
 >1.0</text>
</g>

<g fill="none" stroke="#1f1c1b" stroke-opacity="1" stroke-width="1" stroke-linecap="square" stroke-linejoin="bevel" transform="matrix(1.26212,0,0,1.26212,230,94.0513)"
font-family="Ubuntu" font-size="9" font-weight="400" font-style="normal" 
>
</g>

<g fill="none" stroke="#1f1c1b" stroke-opacity="1" stroke-width="1" stroke-linecap="square" stroke-linejoin="bevel" transform="matrix(1,0,0,1,0,0)"
font-family="Ubuntu" font-size="9" font-weight="400" font-style="normal" 
>
</g>

<g fill="none" stroke="#1f1c1b" stroke-opacity="1" stroke-width="1" stroke-linecap="square" stroke-linejoin="bevel" transform="matrix(1.26212,0,0,1.26212,230,94.0513)"
font-family="Ubuntu" font-size="9" font-weight="400" font-style="normal" 
>
</g>

<g fill="none" stroke="#1f1c1b" stroke-opacity="1" stroke-width="1" stroke-linecap="square" stroke-linejoin="bevel" transform="matrix(1.26212,0,0,1.26212,230,94.0513)"
font-family="Ubuntu" font-size="9" font-weight="400" font-style="normal" 
>
</g>

<g fill="none" stroke="none" transform="matrix(1.26212,0,0,1.26212,230,94.0513)"
font-family="Ubuntu" font-size="9" font-weight="400" font-style="normal" 
>
</g>

<g fill="none" stroke="none" transform="matrix(1.26212,0,0,1.26212,230,94.0513)"
font-family="Ubuntu" font-size="9" font-weight="400" font-style="normal" 
>
</g>

<g fill="none" stroke="none" transform="matrix(1.26212,0,0,1.26212,230,94.0513)"
font-family="Ubuntu" font-size="9" font-weight="400" font-style="normal" 
>
</g>

<g fill="none" stroke="none" transform="matrix(1,0,0,1,0,0)"
font-family="Ubuntu" font-size="9" font-weight="400" font-style="normal" 
>
</g>

<g fill="none" stroke="none" transform="matrix(1,0,0,1,230,94.0513)"
font-family="Ubuntu" font-size="9" font-weight="400" font-style="normal" 
>
</g>

<g fill="none" stroke="none" transform="matrix(1,0,0,1,230,94.0513)"
font-family="Ubuntu" font-size="9" font-weight="400" font-style="normal" 
>
</g>

<g fill="none" stroke="none" transform="matrix(1,0,0,1,-2.15264,-0.822192)"
font-family="Ubuntu" font-size="9" font-weight="400" font-style="normal" 
>
</g>

<g fill="none" stroke="none" transform="matrix(1,0,0,1,-2.15264,-0.822192)"
font-family="Ubuntu" font-size="9" font-weight="400" font-style="normal" 
>
</g>

<g fill="none" stroke="#000000" stroke-opacity="1" stroke-width="1" stroke-linecap="square" stroke-linejoin="bevel" transform="matrix(1,0,0,1,0,0)"
font-family="Ubuntu" font-size="9" font-weight="400" font-style="normal" 
>
</g>
</g>
</svg>

  <svg xmlns="http://www.w3.org/2000/svg" xmlns:xlink="http://www.w3.org/1999/xlink"  version="1.2" baseProfile="tiny">
<title>Qt Svg Document</title>
<desc>Generated with Qt</desc>
<defs>
</defs>
<g fill="none" stroke="black" stroke-width="1" fill-rule="evenodd" stroke-linecap="square" stroke-linejoin="bevel" >

<g fill="none" stroke="none" transform="matrix(1,0,0,1,0,0)"
font-family="Ubuntu" font-size="9" font-weight="400" font-style="normal" 
>
</g>

<g fill="none" stroke="none" transform="matrix(1,0,0,1,-1.63684,-0.756651)"
font-family="Ubuntu" font-size="9" font-weight="400" font-style="normal" 
>
</g>

<g fill="none" stroke="none" transform="matrix(1,0,0,1,159,94.0513)"
font-family="Ubuntu" font-size="9" font-weight="400" font-style="normal" 
>
</g>

<g fill="none" stroke="none" transform="matrix(1,0,0,1,159,94.0513)"
font-family="Ubuntu" font-size="9" font-weight="400" font-style="normal" 
>
</g>

<g fill="none" stroke="none" transform="matrix(1.26212,0,0,1.26212,159,94.0513)"
font-family="Ubuntu" font-size="9" font-weight="400" font-style="normal" 
>
</g>

<g fill="none" stroke="none" transform="matrix(1.26212,0,0,1.26212,159,94.0513)"
font-family="Ubuntu" font-size="9" font-weight="400" font-style="normal" 
>
</g>

<g fill="none" stroke="#1f1c1b" stroke-opacity="1" stroke-width="1" stroke-linecap="square" stroke-linejoin="bevel" transform="matrix(1.26212,0,0,1.26212,159,94.0513)"
font-family="Ubuntu" font-size="9" font-weight="400" font-style="normal" 
>
</g>

<g fill="none" stroke="#1f1c1b" stroke-opacity="1" stroke-width="1" stroke-linecap="square" stroke-linejoin="bevel" transform="matrix(1.26212,0,0,1.26212,159,94.0513)"
font-family="Ubuntu" font-size="9" font-weight="400" font-style="normal" 
>
</g>

<g fill="none" stroke="#1f1c1b" stroke-opacity="1" stroke-width="1" stroke-linecap="square" stroke-linejoin="bevel" transform="matrix(1.26212,0,0,1.26212,159,94.0513)"
font-family="Ubuntu" font-size="9" font-weight="400" font-style="normal" 
>
</g>

<g fill="none" stroke="#000000" stroke-opacity="1" stroke-width="1" stroke-linecap="square" stroke-linejoin="bevel" transform="matrix(1.26212,0,0,1.26212,159,94.0513)"
font-family="Ubuntu" font-size="9" font-weight="400" font-style="normal" 
>
<text fill="#000000" fill-opacity="1" stroke="none" xml:space="preserve" x="3.125" y="15" font-family="Sans Serif" font-size="16" font-weight="400" font-style="normal" 
 >0.5</text>
</g>

<g fill="none" stroke="#1f1c1b" stroke-opacity="1" stroke-width="1" stroke-linecap="square" stroke-linejoin="bevel" transform="matrix(1.26212,0,0,1.26212,159,94.0513)"
font-family="Ubuntu" font-size="9" font-weight="400" font-style="normal" 
>
</g>

<g fill="none" stroke="#1f1c1b" stroke-opacity="1" stroke-width="1" stroke-linecap="square" stroke-linejoin="bevel" transform="matrix(1,0,0,1,0,0)"
font-family="Ubuntu" font-size="9" font-weight="400" font-style="normal" 
>
</g>

<g fill="none" stroke="#1f1c1b" stroke-opacity="1" stroke-width="1" stroke-linecap="square" stroke-linejoin="bevel" transform="matrix(1.26212,0,0,1.26212,159,94.0513)"
font-family="Ubuntu" font-size="9" font-weight="400" font-style="normal" 
>
</g>

<g fill="none" stroke="#1f1c1b" stroke-opacity="1" stroke-width="1" stroke-linecap="square" stroke-linejoin="bevel" transform="matrix(1.26212,0,0,1.26212,159,94.0513)"
font-family="Ubuntu" font-size="9" font-weight="400" font-style="normal" 
>
</g>

<g fill="none" stroke="none" transform="matrix(1.26212,0,0,1.26212,159,94.0513)"
font-family="Ubuntu" font-size="9" font-weight="400" font-style="normal" 
>
</g>

<g fill="none" stroke="none" transform="matrix(1.26212,0,0,1.26212,159,94.0513)"
font-family="Ubuntu" font-size="9" font-weight="400" font-style="normal" 
>
</g>

<g fill="none" stroke="none" transform="matrix(1.26212,0,0,1.26212,159,94.0513)"
font-family="Ubuntu" font-size="9" font-weight="400" font-style="normal" 
>
</g>

<g fill="none" stroke="none" transform="matrix(1,0,0,1,0,0)"
font-family="Ubuntu" font-size="9" font-weight="400" font-style="normal" 
>
</g>

<g fill="none" stroke="none" transform="matrix(1,0,0,1,159,94.0513)"
font-family="Ubuntu" font-size="9" font-weight="400" font-style="normal" 
>
</g>

<g fill="none" stroke="none" transform="matrix(1,0,0,1,159,94.0513)"
font-family="Ubuntu" font-size="9" font-weight="400" font-style="normal" 
>
</g>

<g fill="none" stroke="none" transform="matrix(1,0,0,1,-1.63684,-0.756651)"
font-family="Ubuntu" font-size="9" font-weight="400" font-style="normal" 
>
</g>

<g fill="none" stroke="none" transform="matrix(1,0,0,1,-1.63684,-0.756651)"
font-family="Ubuntu" font-size="9" font-weight="400" font-style="normal" 
>
</g>

<g fill="none" stroke="#000000" stroke-opacity="1" stroke-width="1" stroke-linecap="square" stroke-linejoin="bevel" transform="matrix(1,0,0,1,0,0)"
font-family="Ubuntu" font-size="9" font-weight="400" font-style="normal" 
>
</g>
</g>
</svg>

  <svg xmlns="http://www.w3.org/2000/svg" xmlns:xlink="http://www.w3.org/1999/xlink"  version="1.2" baseProfile="tiny">
<title>Qt Svg Document</title>
<desc>Generated with Qt</desc>
<defs>
</defs>
<g fill="none" stroke="black" stroke-width="1" fill-rule="evenodd" stroke-linecap="square" stroke-linejoin="bevel" >

<g fill="none" stroke="none" transform="matrix(1,0,0,1,0,0)"
font-family="Ubuntu" font-size="9" font-weight="400" font-style="normal" 
>
</g>

<g fill="none" stroke="none" transform="matrix(1,0,0,1,-1.05804,-0.833574)"
font-family="Ubuntu" font-size="9" font-weight="400" font-style="normal" 
>
</g>

<g fill="none" stroke="none" transform="matrix(1,0,0,1,87,97.0513)"
font-family="Ubuntu" font-size="9" font-weight="400" font-style="normal" 
>
</g>

<g fill="none" stroke="none" transform="matrix(1,0,0,1,87,97.0513)"
font-family="Ubuntu" font-size="9" font-weight="400" font-style="normal" 
>
</g>

<g fill="none" stroke="none" transform="matrix(1.26212,0,0,1.26212,87,97.0513)"
font-family="Ubuntu" font-size="9" font-weight="400" font-style="normal" 
>
</g>

<g fill="none" stroke="none" transform="matrix(1.26212,0,0,1.26212,87,97.0513)"
font-family="Ubuntu" font-size="9" font-weight="400" font-style="normal" 
>
</g>

<g fill="none" stroke="#1f1c1b" stroke-opacity="1" stroke-width="1" stroke-linecap="square" stroke-linejoin="bevel" transform="matrix(1.26212,0,0,1.26212,87,97.0513)"
font-family="Ubuntu" font-size="9" font-weight="400" font-style="normal" 
>
</g>

<g fill="none" stroke="#1f1c1b" stroke-opacity="1" stroke-width="1" stroke-linecap="square" stroke-linejoin="bevel" transform="matrix(1.26212,0,0,1.26212,87,97.0513)"
font-family="Ubuntu" font-size="9" font-weight="400" font-style="normal" 
>
</g>

<g fill="none" stroke="#1f1c1b" stroke-opacity="1" stroke-width="1" stroke-linecap="square" stroke-linejoin="bevel" transform="matrix(1.26212,0,0,1.26212,87,97.0513)"
font-family="Ubuntu" font-size="9" font-weight="400" font-style="normal" 
>
</g>

<g fill="none" stroke="#000000" stroke-opacity="1" stroke-width="1" stroke-linecap="square" stroke-linejoin="bevel" transform="matrix(1.26212,0,0,1.26212,87,97.0513)"
font-family="Ubuntu" font-size="9" font-weight="400" font-style="normal" 
>
<text fill="#000000" fill-opacity="1" stroke="none" xml:space="preserve" x="2.5" y="12" font-family="Sans Serif" font-size="12" font-weight="400" font-style="normal" 
 >0.25</text>
</g>

<g fill="none" stroke="#1f1c1b" stroke-opacity="1" stroke-width="1" stroke-linecap="square" stroke-linejoin="bevel" transform="matrix(1.26212,0,0,1.26212,87,97.0513)"
font-family="Ubuntu" font-size="9" font-weight="400" font-style="normal" 
>
</g>

<g fill="none" stroke="#1f1c1b" stroke-opacity="1" stroke-width="1" stroke-linecap="square" stroke-linejoin="bevel" transform="matrix(1,0,0,1,0,0)"
font-family="Ubuntu" font-size="9" font-weight="400" font-style="normal" 
>
</g>

<g fill="none" stroke="#1f1c1b" stroke-opacity="1" stroke-width="1" stroke-linecap="square" stroke-linejoin="bevel" transform="matrix(1.26212,0,0,1.26212,87,97.0513)"
font-family="Ubuntu" font-size="9" font-weight="400" font-style="normal" 
>
</g>

<g fill="none" stroke="#1f1c1b" stroke-opacity="1" stroke-width="1" stroke-linecap="square" stroke-linejoin="bevel" transform="matrix(1.26212,0,0,1.26212,87,97.0513)"
font-family="Ubuntu" font-size="9" font-weight="400" font-style="normal" 
>
</g>

<g fill="none" stroke="none" transform="matrix(1.26212,0,0,1.26212,87,97.0513)"
font-family="Ubuntu" font-size="9" font-weight="400" font-style="normal" 
>
</g>

<g fill="none" stroke="none" transform="matrix(1.26212,0,0,1.26212,87,97.0513)"
font-family="Ubuntu" font-size="9" font-weight="400" font-style="normal" 
>
</g>

<g fill="none" stroke="none" transform="matrix(1.26212,0,0,1.26212,87,97.0513)"
font-family="Ubuntu" font-size="9" font-weight="400" font-style="normal" 
>
</g>

<g fill="none" stroke="none" transform="matrix(1,0,0,1,0,0)"
font-family="Ubuntu" font-size="9" font-weight="400" font-style="normal" 
>
</g>

<g fill="none" stroke="none" transform="matrix(1,0,0,1,87,97.0513)"
font-family="Ubuntu" font-size="9" font-weight="400" font-style="normal" 
>
</g>

<g fill="none" stroke="none" transform="matrix(1,0,0,1,87,97.0513)"
font-family="Ubuntu" font-size="9" font-weight="400" font-style="normal" 
>
</g>

<g fill="none" stroke="none" transform="matrix(1,0,0,1,-1.05804,-0.833574)"
font-family="Ubuntu" font-size="9" font-weight="400" font-style="normal" 
>
</g>

<g fill="none" stroke="none" transform="matrix(1,0,0,1,-1.05804,-0.833574)"
font-family="Ubuntu" font-size="9" font-weight="400" font-style="normal" 
>
</g>

<g fill="none" stroke="#000000" stroke-opacity="1" stroke-width="1" stroke-linecap="square" stroke-linejoin="bevel" transform="matrix(1,0,0,1,0,0)"
font-family="Ubuntu" font-size="9" font-weight="400" font-style="normal" 
>
</g>
</g>
</svg>

  <svg xmlns="http://www.w3.org/2000/svg" xmlns:xlink="http://www.w3.org/1999/xlink"  version="1.2" baseProfile="tiny">
<title>Qt Svg Document</title>
<desc>Generated with Qt</desc>
<defs>
</defs>
<g fill="none" stroke="black" stroke-width="1" fill-rule="evenodd" stroke-linecap="square" stroke-linejoin="bevel" >

<g fill="none" stroke="none" transform="matrix(1,0,0,1,0,0)"
font-family="Ubuntu" font-size="9" font-weight="400" font-style="normal" 
>
</g>

<g fill="none" stroke="none" transform="matrix(1,0,0,1,-1.08368,-1.62039)"
font-family="Ubuntu" font-size="9" font-weight="400" font-style="normal" 
>
</g>

<g fill="none" stroke="none" transform="matrix(1,0,0,1,88,171.051)"
font-family="Ubuntu" font-size="9" font-weight="400" font-style="normal" 
>
</g>

<g fill="none" stroke="none" transform="matrix(1,0,0,1,88,171.051)"
font-family="Ubuntu" font-size="9" font-weight="400" font-style="normal" 
>
</g>

<g fill="none" stroke="none" transform="matrix(1.26212,0,0,1.26212,88,171.051)"
font-family="Ubuntu" font-size="9" font-weight="400" font-style="normal" 
>
</g>

<g fill="none" stroke="none" transform="matrix(1.26212,0,0,1.26212,88,171.051)"
font-family="Ubuntu" font-size="9" font-weight="400" font-style="normal" 
>
</g>

<g fill="none" stroke="#1f1c1b" stroke-opacity="1" stroke-width="1" stroke-linecap="square" stroke-linejoin="bevel" transform="matrix(1.26212,0,0,1.26212,88,171.051)"
font-family="Ubuntu" font-size="9" font-weight="400" font-style="normal" 
>
</g>

<g fill="none" stroke="#1f1c1b" stroke-opacity="1" stroke-width="1" stroke-linecap="square" stroke-linejoin="bevel" transform="matrix(1.26212,0,0,1.26212,88,171.051)"
font-family="Ubuntu" font-size="9" font-weight="400" font-style="normal" 
>
</g>

<g fill="none" stroke="#1f1c1b" stroke-opacity="1" stroke-width="1" stroke-linecap="square" stroke-linejoin="bevel" transform="matrix(1.26212,0,0,1.26212,88,171.051)"
font-family="Ubuntu" font-size="9" font-weight="400" font-style="normal" 
>
</g>

<g fill="none" stroke="#000000" stroke-opacity="1" stroke-width="1" stroke-linecap="square" stroke-linejoin="bevel" transform="matrix(1.26212,0,0,1.26212,88,171.051)"
font-family="Ubuntu" font-size="9" font-weight="400" font-style="normal" 
>
<text fill="#000000" fill-opacity="1" stroke="none" xml:space="preserve" x="1.53125" y="10" font-family="Sans Serif" font-size="10" font-weight="400" font-style="normal" 
 >0.125</text>
</g>

<g fill="none" stroke="#1f1c1b" stroke-opacity="1" stroke-width="1" stroke-linecap="square" stroke-linejoin="bevel" transform="matrix(1.26212,0,0,1.26212,88,171.051)"
font-family="Ubuntu" font-size="9" font-weight="400" font-style="normal" 
>
</g>

<g fill="none" stroke="#1f1c1b" stroke-opacity="1" stroke-width="1" stroke-linecap="square" stroke-linejoin="bevel" transform="matrix(1,0,0,1,0,0)"
font-family="Ubuntu" font-size="9" font-weight="400" font-style="normal" 
>
</g>

<g fill="none" stroke="#1f1c1b" stroke-opacity="1" stroke-width="1" stroke-linecap="square" stroke-linejoin="bevel" transform="matrix(1.26212,0,0,1.26212,88,171.051)"
font-family="Ubuntu" font-size="9" font-weight="400" font-style="normal" 
>
</g>

<g fill="none" stroke="#1f1c1b" stroke-opacity="1" stroke-width="1" stroke-linecap="square" stroke-linejoin="bevel" transform="matrix(1.26212,0,0,1.26212,88,171.051)"
font-family="Ubuntu" font-size="9" font-weight="400" font-style="normal" 
>
</g>

<g fill="none" stroke="none" transform="matrix(1.26212,0,0,1.26212,88,171.051)"
font-family="Ubuntu" font-size="9" font-weight="400" font-style="normal" 
>
</g>

<g fill="none" stroke="none" transform="matrix(1.26212,0,0,1.26212,88,171.051)"
font-family="Ubuntu" font-size="9" font-weight="400" font-style="normal" 
>
</g>

<g fill="none" stroke="none" transform="matrix(1.26212,0,0,1.26212,88,171.051)"
font-family="Ubuntu" font-size="9" font-weight="400" font-style="normal" 
>
</g>

<g fill="none" stroke="none" transform="matrix(1,0,0,1,0,0)"
font-family="Ubuntu" font-size="9" font-weight="400" font-style="normal" 
>
</g>

<g fill="none" stroke="none" transform="matrix(1,0,0,1,88,171.051)"
font-family="Ubuntu" font-size="9" font-weight="400" font-style="normal" 
>
</g>

<g fill="none" stroke="none" transform="matrix(1,0,0,1,88,171.051)"
font-family="Ubuntu" font-size="9" font-weight="400" font-style="normal" 
>
</g>

<g fill="none" stroke="none" transform="matrix(1,0,0,1,-1.08368,-1.62039)"
font-family="Ubuntu" font-size="9" font-weight="400" font-style="normal" 
>
</g>

<g fill="none" stroke="none" transform="matrix(1,0,0,1,-1.08368,-1.62039)"
font-family="Ubuntu" font-size="9" font-weight="400" font-style="normal" 
>
</g>

<g fill="none" stroke="#000000" stroke-opacity="1" stroke-width="1" stroke-linecap="square" stroke-linejoin="bevel" transform="matrix(1,0,0,1,0,0)"
font-family="Ubuntu" font-size="9" font-weight="400" font-style="normal" 
>
</g>
</g>
</svg>

 </g>
</svg>
