<?xml version="1.0" encoding="UTF-8" standalone="no"?>
<!-- Created with Inkscape (http://www.inkscape.org/) -->

<svg
   xmlns:dc="http://purl.org/dc/elements/1.1/"
   xmlns:cc="http://creativecommons.org/ns#"
   xmlns:rdf="http://www.w3.org/1999/02/22-rdf-syntax-ns#"
   xmlns:svg="http://www.w3.org/2000/svg"
   xmlns="http://www.w3.org/2000/svg"
   xmlns:sodipodi="http://sodipodi.sourceforge.net/DTD/sodipodi-0.dtd"
   xmlns:inkscape="http://www.inkscape.org/namespaces/inkscape"
   width="600"
   height="600"
   id="svg2"
   version="1.1"
   inkscape:version="0.48.4 r9939"
   sodipodi:docname="normBalls.pdf">
  <defs
     id="defs4">
    <marker
       inkscape:stockid="Arrow1Lend"
       orient="auto"
       refY="0.0"
       refX="0.0"
       id="Arrow1Lend"
       style="overflow:visible;">
      <path
         id="path3850"
         d="M 0.0,0.0 L 5.0,-5.0 L -12.5,0.0 L 5.0,5.0 L 0.0,0.0 z "
         style="fill-rule:evenodd;stroke:#000000;stroke-width:1.0pt;"
         transform="scale(0.8) rotate(180) translate(12.5,0)" />
    </marker>
  </defs>
  <sodipodi:namedview
     id="base"
     pagecolor="#ffffff"
     bordercolor="#666666"
     borderopacity="1.0"
     inkscape:pageopacity="0.0"
     inkscape:pageshadow="2"
     inkscape:zoom="0.98994949"
     inkscape:cx="109.64517"
     inkscape:cy="270.12993"
     inkscape:document-units="px"
     inkscape:current-layer="layer1"
     showgrid="false"
     inkscape:window-width="1920"
     inkscape:window-height="1025"
     inkscape:window-x="-2"
     inkscape:window-y="-3"
     inkscape:window-maximized="1" />
  <metadata
     id="metadata7">
    <rdf:RDF>
      <cc:Work
         rdf:about="">
        <dc:format>image/svg+xml</dc:format>
        <dc:type
           rdf:resource="http://purl.org/dc/dcmitype/StillImage" />
        <dc:title></dc:title>
      </cc:Work>
    </rdf:RDF>
  </metadata>
  <g
     inkscape:label="Layer 1"
     inkscape:groupmode="layer"
     id="layer1"
     transform="translate(0,-452.36218)">
    <path
       sodipodi:type="arc"
       style="fill:none;stroke:#000000;stroke-width:1;stroke-linecap:square;stroke-miterlimit:4;stroke-opacity:1;stroke-dasharray:none"
       id="path2985"
       sodipodi:cx="292.14285"
       sodipodi:cy="304.28571"
       sodipodi:rx="125"
       sodipodi:ry="125"
       d="m 417.14285,304.28571 a 125,125 0 1 1 -250,0 125,125 0 1 1 250,0 z"
       transform="matrix(1.1952191,0,0,1.1952191,-49.174725,388.67408)" />
    <path
       style="fill:none;stroke:#000000;stroke-width:1.04982316px;stroke-linecap:butt;stroke-linejoin:miter;stroke-opacity:1"
       d="m 0.52505579,751.86218 598.94986421,0"
       id="path3755"
       inkscape:connector-curvature="0" />
    <rect
       style="fill:none;stroke:#000000;stroke-width:0.99999994;stroke-linecap:square;stroke-miterlimit:4;stroke-opacity:1;stroke-dasharray:none"
       id="rect3757"
       width="299"
       height="299"
       x="150.5"
       y="602.86218" />
    <rect
       style="fill:none;stroke:#000000;stroke-width:1;stroke-linecap:square;stroke-miterlimit:4;stroke-opacity:1;stroke-dasharray:none"
       id="rect3759"
       width="211.42493"
       height="211.42493"
       x="638.42004"
       y="214.15587"
       transform="matrix(0.7071068,0.70710676,-0.7071068,0.70710676,0,0)" />
    <path
       style="fill:none;stroke:#000000;stroke-width:1px;stroke-linecap:butt;stroke-linejoin:miter;stroke-opacity:1"
       d="m 300.5,453.00502 0,598.71428"
       id="path3763"
       inkscape:connector-curvature="0" />
    <flowRoot
       xml:space="preserve"
       id="flowRoot3765"
       transform="translate(-105.6193,913.05265)"
       style="text-align:center;text-anchor:middle"><flowRegion
         id="flowRegion3767"><rect
           id="rect3769"
           width="253.54828"
           height="77.781746"
           x="418.20316"
           y="37.345032"
           style="text-align:center;text-anchor:middle" /></flowRegion><flowPara
         id="flowPara3771"
         style="font-size:32px;text-align:center;text-anchor:middle">p = 2</flowPara></flowRoot>    <flowRoot
       xml:space="preserve"
       id="flowRoot3765-6"
       transform="translate(-420.41374,465.16712)"
       style="text-align:center;text-anchor:middle"><flowRegion
         id="flowRegion3767-2"><rect
           id="rect3769-1"
           width="219.20309"
           height="76.771599"
           x="418.20316"
           y="37.345032"
           style="text-align:center;text-anchor:middle" /></flowRegion><flowPara
         id="flowPara3771-1"
         style="font-size:32px;text-align:center;text-anchor:middle">p = ∞</flowPara></flowRoot>    <flowRoot
       xml:space="preserve"
       id="flowRoot3765-9"
       transform="translate(59.748795,475.24834)"><flowRegion
         id="flowRegion3767-0"><rect
           id="rect3769-3"
           width="170.71576"
           height="162.63457"
           x="418.20316"
           y="37.345032" /></flowRegion><flowPara
         id="flowPara3771-4"
         style="font-size:32px">p = 1</flowPara></flowRoot>    <path
       style="fill:none;stroke:#000000;stroke-width:1px;stroke-linecap:butt;stroke-linejoin:miter;stroke-opacity:1;marker-end:url(#Arrow1Lend)"
       d="m 109.09647,95.93388 41.41626,54.54824"
       id="path3841"
       inkscape:connector-curvature="0"
       transform="translate(0,452.36218)" />
    <path
       style="fill:none;stroke:#000000;stroke-width:1px;stroke-linecap:butt;stroke-linejoin:miter;stroke-opacity:1;marker-end:url(#Arrow1Lend)"
       d="M 428.30468,498.98475 388.90873,419.18269"
       id="path4287"
       inkscape:connector-curvature="0"
       transform="translate(0,452.36218)" />
    <path
       style="fill:none;stroke:#000000;stroke-width:1px;stroke-linecap:butt;stroke-linejoin:miter;stroke-opacity:1;marker-end:url(#Arrow1Lend)"
       d="M 513.15749,112.09632 386.88842,236.34508"
       id="path4471"
       inkscape:connector-curvature="0"
       transform="translate(0,452.36218)" />
  </g>
</svg>
