0 0 0
50000 0.53296 0.0064334
100000 1.95047 0.149258
150000 3.59794 0.356661
200000 4.77373 0.490792
250000 5.61478 0.510126
300000 6.16353 0.493632
350000 6.78587 0.469684
400000 7.23183 0.42981
450000 7.58927 0.400411
500000 7.7722 0.375796
