50000 5.70364 1.8814
100000 7.63033 1.87758
150000 8.79266 2.53895
200000 9.20435 2.80749
250000 9.32774 2.88091
300000 9.39511 2.91593
350000 9.39082 2.91137
400000 9.40746 2.92436
450000 9.18632 2.80302
500000 9.05197 2.72487
