0 0 0
50000 5.70364 0.594951
100000 7.63033 0.593743
150000 8.79266 0.802886
200000 9.20435 0.887806
250000 9.32774 0.911024
300000 9.39511 0.922098
350000 9.39082 0.920656
400000 9.40746 0.924764
450000 9.18632 0.886393
500000 9.05197 0.86168
