\relax 
\citation{singh1994learning}
\citation{boyan1995generalization}
\citation{mccallum1996learning}
\citation{au2004automatic}
\citation{uther1998tree}
\citation{dabney2007utile}
\citation{williams1992simple}
\citation{baxter2000direct}
\citation{kersting2008non}
\citation{da2014napping}
\newlabel{sec:introduction}{{1}{1}}
\providecommand*\caption@xref[2]{\@setref\relax\@undefined{#1}}
\newlabel{fig:simple_tree}{{1}{1}}
\citation{gama2004functional}
\citation{sutton1999policy}
\citation{peters2008natural}
\citation{sutton1998introduction}
\newlabel{sec:reinforcement_learning}{{2}{2}}
\newlabel{eq:policy_softmax}{{1}{2}}
\newlabel{eq:policy_bandit}{{2}{2}}
\newlabel{sec:algorithm}{{3}{2}}
\newlabel{eq:fringe_leaf_equality}{{3}{3}}
\newlabel{eq:best_fringe}{{4}{3}}
\newlabel{fig:norm_sphere}{{2}{3}}
\newlabel{eq:gradient_taylor}{{5}{3}}
\newlabel{eq:gradient_duality}{{6}{3}}
\newlabel{sec:experiments}{{4}{4}}
\newlabel{fig:games}{{3}{4}}
\newlabel{fig:feature_generation}{{4}{4}}
\citation{weaver2001optimal}
\citation{breiman1984classification}
\newlabel{eq:policy_softmax_epsilon_greedy}{{7}{5}}
\newlabel{sec:future_work}{{5}{5}}
\citation{jie2010connection}
\bibstyle{aaai}
\bibdata{policytree}
\bibcite{au2004automatic}{\citeauthoryear {Au and Maire}{2004}}
\bibcite{baxter2000direct}{\citeauthoryear {Baxter and Bartlett}{2000}}
\bibcite{boyan1995generalization}{\citeauthoryear {Boyan and Moore}{1995}}
\newlabel{fig:results}{{5}{6}}
\newlabel{sec:conclusion}{{6}{6}}
\bibcite{breiman1984classification}{\citeauthoryear {Breiman \bgroup et al\unhbox \voidb@x \hbox {.}\egroup }{1984}}
\bibcite{da2014napping}{\citeauthoryear {Da, Yu, and Zhou}{2014}}
\bibcite{dabney2007utile}{\citeauthoryear {Dabney and McGovern}{2007}}
\bibcite{gama2004functional}{\citeauthoryear {Gama}{2004}}
\bibcite{jie2010connection}{\citeauthoryear {Jie and Abbeel}{2010}}
\bibcite{kersting2008non}{\citeauthoryear {Kersting and Driessens}{2008}}
\bibcite{mccallum1996learning}{\citeauthoryear {McCallum}{1996}}
\bibcite{peters2008natural}{\citeauthoryear {Peters and Schaal}{2008}}
\bibcite{singh1994learning}{\citeauthoryear {Singh, Jaakkola, and Jordan}{1994}}
\bibcite{sutton1998introduction}{\citeauthoryear {Sutton and Barto}{1998}}
\bibcite{sutton1999policy}{\citeauthoryear {Sutton \bgroup et al\unhbox \voidb@x \hbox {.}\egroup }{2000}}
\bibcite{uther1998tree}{\citeauthoryear {Uther and Veloso}{1998}}
\bibcite{weaver2001optimal}{\citeauthoryear {Weaver and Tao}{2001}}
\bibcite{williams1992simple}{\citeauthoryear {Williams}{1992}}
