%!PS-Adobe-2.0 EPSF-2.0
%%Title: Rescue.eps
%%Creator: gnuplot 4.6 patchlevel 4
%%CreationDate: Mon Sep  8 12:28:15 2014
%%DocumentFonts: (atend)
%%BoundingBox: 50 50 410 302
%%EndComments
%%BeginProlog
/gnudict 256 dict def
gnudict begin
%
% The following true/false flags may be edited by hand if desired.
% The unit line width and grayscale image gamma correction may also be changed.
%
/Color true def
/Blacktext false def
/Solid false def
/Dashlength 1 def
/Landscape false def
/Level1 false def
/Rounded false def
/ClipToBoundingBox false def
/SuppressPDFMark false def
/TransparentPatterns false def
/gnulinewidth 20.000 def
/userlinewidth gnulinewidth def
/Gamma 1.0 def
/BackgroundColor {-1.000 -1.000 -1.000} def
%
/vshift -66 def
/dl1 {
  10.0 Dashlength mul mul
  Rounded { currentlinewidth 0.75 mul sub dup 0 le { pop 0.01 } if } if
} def
/dl2 {
  10.0 Dashlength mul mul
  Rounded { currentlinewidth 0.75 mul add } if
} def
/hpt_ 31.5 def
/vpt_ 31.5 def
/hpt hpt_ def
/vpt vpt_ def
/doclip {
  ClipToBoundingBox {
    newpath 50 50 moveto 410 50 lineto 410 302 lineto 50 302 lineto closepath
    clip
  } if
} def
%
% Gnuplot Prolog Version 4.6 (September 2012)
%
%/SuppressPDFMark true def
%
/M {moveto} bind def
/L {lineto} bind def
/R {rmoveto} bind def
/V {rlineto} bind def
/N {newpath moveto} bind def
/Z {closepath} bind def
/C {setrgbcolor} bind def
/f {rlineto fill} bind def
/g {setgray} bind def
/Gshow {show} def   % May be redefined later in the file to support UTF-8
/vpt2 vpt 2 mul def
/hpt2 hpt 2 mul def
/Lshow {currentpoint stroke M 0 vshift R 
	Blacktext {gsave 0 setgray show grestore} {show} ifelse} def
/Rshow {currentpoint stroke M dup stringwidth pop neg vshift R
	Blacktext {gsave 0 setgray show grestore} {show} ifelse} def
/Cshow {currentpoint stroke M dup stringwidth pop -2 div vshift R 
	Blacktext {gsave 0 setgray show grestore} {show} ifelse} def
/UP {dup vpt_ mul /vpt exch def hpt_ mul /hpt exch def
  /hpt2 hpt 2 mul def /vpt2 vpt 2 mul def} def
/DL {Color {setrgbcolor Solid {pop []} if 0 setdash}
 {pop pop pop 0 setgray Solid {pop []} if 0 setdash} ifelse} def
/BL {stroke userlinewidth 2 mul setlinewidth
	Rounded {1 setlinejoin 1 setlinecap} if} def
/AL {stroke userlinewidth 2 div setlinewidth
	Rounded {1 setlinejoin 1 setlinecap} if} def
/UL {dup gnulinewidth mul /userlinewidth exch def
	dup 1 lt {pop 1} if 10 mul /udl exch def} def
/PL {stroke userlinewidth setlinewidth
	Rounded {1 setlinejoin 1 setlinecap} if} def
3.8 setmiterlimit
% Default Line colors
/LCw {1 1 1} def
/LCb {0 0 0} def
/LCa {0 0 0} def
/LC0 {1 0 0} def
/LC1 {0 1 0} def
/LC2 {0 0 1} def
/LC3 {1 0 1} def
/LC4 {0 1 1} def
/LC5 {1 1 0} def
/LC6 {0 0 0} def
/LC7 {1 0.3 0} def
/LC8 {0.5 0.5 0.5} def
% Default Line Types
/LTw {PL [] 1 setgray} def
/LTb {BL [] LCb DL} def
/LTa {AL [1 udl mul 2 udl mul] 0 setdash LCa setrgbcolor} def
/LT0 {PL [] LC0 DL} def
/LT1 {PL [4 dl1 2 dl2] LC1 DL} def
/LT2 {PL [2 dl1 3 dl2] LC2 DL} def
/LT3 {PL [1 dl1 1.5 dl2] LC3 DL} def
/LT4 {PL [6 dl1 2 dl2 1 dl1 2 dl2] LC4 DL} def
/LT5 {PL [3 dl1 3 dl2 1 dl1 3 dl2] LC5 DL} def
/LT6 {PL [2 dl1 2 dl2 2 dl1 6 dl2] LC6 DL} def
/LT7 {PL [1 dl1 2 dl2 6 dl1 2 dl2 1 dl1 2 dl2] LC7 DL} def
/LT8 {PL [2 dl1 2 dl2 2 dl1 2 dl2 2 dl1 2 dl2 2 dl1 4 dl2] LC8 DL} def
/Pnt {stroke [] 0 setdash gsave 1 setlinecap M 0 0 V stroke grestore} def
/Dia {stroke [] 0 setdash 2 copy vpt add M
  hpt neg vpt neg V hpt vpt neg V
  hpt vpt V hpt neg vpt V closepath stroke
  Pnt} def
/Pls {stroke [] 0 setdash vpt sub M 0 vpt2 V
  currentpoint stroke M
  hpt neg vpt neg R hpt2 0 V stroke
 } def
/Box {stroke [] 0 setdash 2 copy exch hpt sub exch vpt add M
  0 vpt2 neg V hpt2 0 V 0 vpt2 V
  hpt2 neg 0 V closepath stroke
  Pnt} def
/Crs {stroke [] 0 setdash exch hpt sub exch vpt add M
  hpt2 vpt2 neg V currentpoint stroke M
  hpt2 neg 0 R hpt2 vpt2 V stroke} def
/TriU {stroke [] 0 setdash 2 copy vpt 1.12 mul add M
  hpt neg vpt -1.62 mul V
  hpt 2 mul 0 V
  hpt neg vpt 1.62 mul V closepath stroke
  Pnt} def
/Star {2 copy Pls Crs} def
/BoxF {stroke [] 0 setdash exch hpt sub exch vpt add M
  0 vpt2 neg V hpt2 0 V 0 vpt2 V
  hpt2 neg 0 V closepath fill} def
/TriUF {stroke [] 0 setdash vpt 1.12 mul add M
  hpt neg vpt -1.62 mul V
  hpt 2 mul 0 V
  hpt neg vpt 1.62 mul V closepath fill} def
/TriD {stroke [] 0 setdash 2 copy vpt 1.12 mul sub M
  hpt neg vpt 1.62 mul V
  hpt 2 mul 0 V
  hpt neg vpt -1.62 mul V closepath stroke
  Pnt} def
/TriDF {stroke [] 0 setdash vpt 1.12 mul sub M
  hpt neg vpt 1.62 mul V
  hpt 2 mul 0 V
  hpt neg vpt -1.62 mul V closepath fill} def
/DiaF {stroke [] 0 setdash vpt add M
  hpt neg vpt neg V hpt vpt neg V
  hpt vpt V hpt neg vpt V closepath fill} def
/Pent {stroke [] 0 setdash 2 copy gsave
  translate 0 hpt M 4 {72 rotate 0 hpt L} repeat
  closepath stroke grestore Pnt} def
/PentF {stroke [] 0 setdash gsave
  translate 0 hpt M 4 {72 rotate 0 hpt L} repeat
  closepath fill grestore} def
/Circle {stroke [] 0 setdash 2 copy
  hpt 0 360 arc stroke Pnt} def
/CircleF {stroke [] 0 setdash hpt 0 360 arc fill} def
/C0 {BL [] 0 setdash 2 copy moveto vpt 90 450 arc} bind def
/C1 {BL [] 0 setdash 2 copy moveto
	2 copy vpt 0 90 arc closepath fill
	vpt 0 360 arc closepath} bind def
/C2 {BL [] 0 setdash 2 copy moveto
	2 copy vpt 90 180 arc closepath fill
	vpt 0 360 arc closepath} bind def
/C3 {BL [] 0 setdash 2 copy moveto
	2 copy vpt 0 180 arc closepath fill
	vpt 0 360 arc closepath} bind def
/C4 {BL [] 0 setdash 2 copy moveto
	2 copy vpt 180 270 arc closepath fill
	vpt 0 360 arc closepath} bind def
/C5 {BL [] 0 setdash 2 copy moveto
	2 copy vpt 0 90 arc
	2 copy moveto
	2 copy vpt 180 270 arc closepath fill
	vpt 0 360 arc} bind def
/C6 {BL [] 0 setdash 2 copy moveto
	2 copy vpt 90 270 arc closepath fill
	vpt 0 360 arc closepath} bind def
/C7 {BL [] 0 setdash 2 copy moveto
	2 copy vpt 0 270 arc closepath fill
	vpt 0 360 arc closepath} bind def
/C8 {BL [] 0 setdash 2 copy moveto
	2 copy vpt 270 360 arc closepath fill
	vpt 0 360 arc closepath} bind def
/C9 {BL [] 0 setdash 2 copy moveto
	2 copy vpt 270 450 arc closepath fill
	vpt 0 360 arc closepath} bind def
/C10 {BL [] 0 setdash 2 copy 2 copy moveto vpt 270 360 arc closepath fill
	2 copy moveto
	2 copy vpt 90 180 arc closepath fill
	vpt 0 360 arc closepath} bind def
/C11 {BL [] 0 setdash 2 copy moveto
	2 copy vpt 0 180 arc closepath fill
	2 copy moveto
	2 copy vpt 270 360 arc closepath fill
	vpt 0 360 arc closepath} bind def
/C12 {BL [] 0 setdash 2 copy moveto
	2 copy vpt 180 360 arc closepath fill
	vpt 0 360 arc closepath} bind def
/C13 {BL [] 0 setdash 2 copy moveto
	2 copy vpt 0 90 arc closepath fill
	2 copy moveto
	2 copy vpt 180 360 arc closepath fill
	vpt 0 360 arc closepath} bind def
/C14 {BL [] 0 setdash 2 copy moveto
	2 copy vpt 90 360 arc closepath fill
	vpt 0 360 arc} bind def
/C15 {BL [] 0 setdash 2 copy vpt 0 360 arc closepath fill
	vpt 0 360 arc closepath} bind def
/Rec {newpath 4 2 roll moveto 1 index 0 rlineto 0 exch rlineto
	neg 0 rlineto closepath} bind def
/Square {dup Rec} bind def
/Bsquare {vpt sub exch vpt sub exch vpt2 Square} bind def
/S0 {BL [] 0 setdash 2 copy moveto 0 vpt rlineto BL Bsquare} bind def
/S1 {BL [] 0 setdash 2 copy vpt Square fill Bsquare} bind def
/S2 {BL [] 0 setdash 2 copy exch vpt sub exch vpt Square fill Bsquare} bind def
/S3 {BL [] 0 setdash 2 copy exch vpt sub exch vpt2 vpt Rec fill Bsquare} bind def
/S4 {BL [] 0 setdash 2 copy exch vpt sub exch vpt sub vpt Square fill Bsquare} bind def
/S5 {BL [] 0 setdash 2 copy 2 copy vpt Square fill
	exch vpt sub exch vpt sub vpt Square fill Bsquare} bind def
/S6 {BL [] 0 setdash 2 copy exch vpt sub exch vpt sub vpt vpt2 Rec fill Bsquare} bind def
/S7 {BL [] 0 setdash 2 copy exch vpt sub exch vpt sub vpt vpt2 Rec fill
	2 copy vpt Square fill Bsquare} bind def
/S8 {BL [] 0 setdash 2 copy vpt sub vpt Square fill Bsquare} bind def
/S9 {BL [] 0 setdash 2 copy vpt sub vpt vpt2 Rec fill Bsquare} bind def
/S10 {BL [] 0 setdash 2 copy vpt sub vpt Square fill 2 copy exch vpt sub exch vpt Square fill
	Bsquare} bind def
/S11 {BL [] 0 setdash 2 copy vpt sub vpt Square fill 2 copy exch vpt sub exch vpt2 vpt Rec fill
	Bsquare} bind def
/S12 {BL [] 0 setdash 2 copy exch vpt sub exch vpt sub vpt2 vpt Rec fill Bsquare} bind def
/S13 {BL [] 0 setdash 2 copy exch vpt sub exch vpt sub vpt2 vpt Rec fill
	2 copy vpt Square fill Bsquare} bind def
/S14 {BL [] 0 setdash 2 copy exch vpt sub exch vpt sub vpt2 vpt Rec fill
	2 copy exch vpt sub exch vpt Square fill Bsquare} bind def
/S15 {BL [] 0 setdash 2 copy Bsquare fill Bsquare} bind def
/D0 {gsave translate 45 rotate 0 0 S0 stroke grestore} bind def
/D1 {gsave translate 45 rotate 0 0 S1 stroke grestore} bind def
/D2 {gsave translate 45 rotate 0 0 S2 stroke grestore} bind def
/D3 {gsave translate 45 rotate 0 0 S3 stroke grestore} bind def
/D4 {gsave translate 45 rotate 0 0 S4 stroke grestore} bind def
/D5 {gsave translate 45 rotate 0 0 S5 stroke grestore} bind def
/D6 {gsave translate 45 rotate 0 0 S6 stroke grestore} bind def
/D7 {gsave translate 45 rotate 0 0 S7 stroke grestore} bind def
/D8 {gsave translate 45 rotate 0 0 S8 stroke grestore} bind def
/D9 {gsave translate 45 rotate 0 0 S9 stroke grestore} bind def
/D10 {gsave translate 45 rotate 0 0 S10 stroke grestore} bind def
/D11 {gsave translate 45 rotate 0 0 S11 stroke grestore} bind def
/D12 {gsave translate 45 rotate 0 0 S12 stroke grestore} bind def
/D13 {gsave translate 45 rotate 0 0 S13 stroke grestore} bind def
/D14 {gsave translate 45 rotate 0 0 S14 stroke grestore} bind def
/D15 {gsave translate 45 rotate 0 0 S15 stroke grestore} bind def
/DiaE {stroke [] 0 setdash vpt add M
  hpt neg vpt neg V hpt vpt neg V
  hpt vpt V hpt neg vpt V closepath stroke} def
/BoxE {stroke [] 0 setdash exch hpt sub exch vpt add M
  0 vpt2 neg V hpt2 0 V 0 vpt2 V
  hpt2 neg 0 V closepath stroke} def
/TriUE {stroke [] 0 setdash vpt 1.12 mul add M
  hpt neg vpt -1.62 mul V
  hpt 2 mul 0 V
  hpt neg vpt 1.62 mul V closepath stroke} def
/TriDE {stroke [] 0 setdash vpt 1.12 mul sub M
  hpt neg vpt 1.62 mul V
  hpt 2 mul 0 V
  hpt neg vpt -1.62 mul V closepath stroke} def
/PentE {stroke [] 0 setdash gsave
  translate 0 hpt M 4 {72 rotate 0 hpt L} repeat
  closepath stroke grestore} def
/CircE {stroke [] 0 setdash 
  hpt 0 360 arc stroke} def
/Opaque {gsave closepath 1 setgray fill grestore 0 setgray closepath} def
/DiaW {stroke [] 0 setdash vpt add M
  hpt neg vpt neg V hpt vpt neg V
  hpt vpt V hpt neg vpt V Opaque stroke} def
/BoxW {stroke [] 0 setdash exch hpt sub exch vpt add M
  0 vpt2 neg V hpt2 0 V 0 vpt2 V
  hpt2 neg 0 V Opaque stroke} def
/TriUW {stroke [] 0 setdash vpt 1.12 mul add M
  hpt neg vpt -1.62 mul V
  hpt 2 mul 0 V
  hpt neg vpt 1.62 mul V Opaque stroke} def
/TriDW {stroke [] 0 setdash vpt 1.12 mul sub M
  hpt neg vpt 1.62 mul V
  hpt 2 mul 0 V
  hpt neg vpt -1.62 mul V Opaque stroke} def
/PentW {stroke [] 0 setdash gsave
  translate 0 hpt M 4 {72 rotate 0 hpt L} repeat
  Opaque stroke grestore} def
/CircW {stroke [] 0 setdash 
  hpt 0 360 arc Opaque stroke} def
/BoxFill {gsave Rec 1 setgray fill grestore} def
/Density {
  /Fillden exch def
  currentrgbcolor
  /ColB exch def /ColG exch def /ColR exch def
  /ColR ColR Fillden mul Fillden sub 1 add def
  /ColG ColG Fillden mul Fillden sub 1 add def
  /ColB ColB Fillden mul Fillden sub 1 add def
  ColR ColG ColB setrgbcolor} def
/BoxColFill {gsave Rec PolyFill} def
/PolyFill {gsave Density fill grestore grestore} def
/h {rlineto rlineto rlineto gsave closepath fill grestore} bind def
%
% PostScript Level 1 Pattern Fill routine for rectangles
% Usage: x y w h s a XX PatternFill
%	x,y = lower left corner of box to be filled
%	w,h = width and height of box
%	  a = angle in degrees between lines and x-axis
%	 XX = 0/1 for no/yes cross-hatch
%
/PatternFill {gsave /PFa [ 9 2 roll ] def
  PFa 0 get PFa 2 get 2 div add PFa 1 get PFa 3 get 2 div add translate
  PFa 2 get -2 div PFa 3 get -2 div PFa 2 get PFa 3 get Rec
  TransparentPatterns {} {gsave 1 setgray fill grestore} ifelse
  clip
  currentlinewidth 0.5 mul setlinewidth
  /PFs PFa 2 get dup mul PFa 3 get dup mul add sqrt def
  0 0 M PFa 5 get rotate PFs -2 div dup translate
  0 1 PFs PFa 4 get div 1 add floor cvi
	{PFa 4 get mul 0 M 0 PFs V} for
  0 PFa 6 get ne {
	0 1 PFs PFa 4 get div 1 add floor cvi
	{PFa 4 get mul 0 2 1 roll M PFs 0 V} for
 } if
  stroke grestore} def
%
/languagelevel where
 {pop languagelevel} {1} ifelse
 2 lt
	{/InterpretLevel1 true def}
	{/InterpretLevel1 Level1 def}
 ifelse
%
% PostScript level 2 pattern fill definitions
%
/Level2PatternFill {
/Tile8x8 {/PaintType 2 /PatternType 1 /TilingType 1 /BBox [0 0 8 8] /XStep 8 /YStep 8}
	bind def
/KeepColor {currentrgbcolor [/Pattern /DeviceRGB] setcolorspace} bind def
<< Tile8x8
 /PaintProc {0.5 setlinewidth pop 0 0 M 8 8 L 0 8 M 8 0 L stroke} 
>> matrix makepattern
/Pat1 exch def
<< Tile8x8
 /PaintProc {0.5 setlinewidth pop 0 0 M 8 8 L 0 8 M 8 0 L stroke
	0 4 M 4 8 L 8 4 L 4 0 L 0 4 L stroke}
>> matrix makepattern
/Pat2 exch def
<< Tile8x8
 /PaintProc {0.5 setlinewidth pop 0 0 M 0 8 L
	8 8 L 8 0 L 0 0 L fill}
>> matrix makepattern
/Pat3 exch def
<< Tile8x8
 /PaintProc {0.5 setlinewidth pop -4 8 M 8 -4 L
	0 12 M 12 0 L stroke}
>> matrix makepattern
/Pat4 exch def
<< Tile8x8
 /PaintProc {0.5 setlinewidth pop -4 0 M 8 12 L
	0 -4 M 12 8 L stroke}
>> matrix makepattern
/Pat5 exch def
<< Tile8x8
 /PaintProc {0.5 setlinewidth pop -2 8 M 4 -4 L
	0 12 M 8 -4 L 4 12 M 10 0 L stroke}
>> matrix makepattern
/Pat6 exch def
<< Tile8x8
 /PaintProc {0.5 setlinewidth pop -2 0 M 4 12 L
	0 -4 M 8 12 L 4 -4 M 10 8 L stroke}
>> matrix makepattern
/Pat7 exch def
<< Tile8x8
 /PaintProc {0.5 setlinewidth pop 8 -2 M -4 4 L
	12 0 M -4 8 L 12 4 M 0 10 L stroke}
>> matrix makepattern
/Pat8 exch def
<< Tile8x8
 /PaintProc {0.5 setlinewidth pop 0 -2 M 12 4 L
	-4 0 M 12 8 L -4 4 M 8 10 L stroke}
>> matrix makepattern
/Pat9 exch def
/Pattern1 {PatternBgnd KeepColor Pat1 setpattern} bind def
/Pattern2 {PatternBgnd KeepColor Pat2 setpattern} bind def
/Pattern3 {PatternBgnd KeepColor Pat3 setpattern} bind def
/Pattern4 {PatternBgnd KeepColor Landscape {Pat5} {Pat4} ifelse setpattern} bind def
/Pattern5 {PatternBgnd KeepColor Landscape {Pat4} {Pat5} ifelse setpattern} bind def
/Pattern6 {PatternBgnd KeepColor Landscape {Pat9} {Pat6} ifelse setpattern} bind def
/Pattern7 {PatternBgnd KeepColor Landscape {Pat8} {Pat7} ifelse setpattern} bind def
} def
%
%
%End of PostScript Level 2 code
%
/PatternBgnd {
  TransparentPatterns {} {gsave 1 setgray fill grestore} ifelse
} def
%
% Substitute for Level 2 pattern fill codes with
% grayscale if Level 2 support is not selected.
%
/Level1PatternFill {
/Pattern1 {0.250 Density} bind def
/Pattern2 {0.500 Density} bind def
/Pattern3 {0.750 Density} bind def
/Pattern4 {0.125 Density} bind def
/Pattern5 {0.375 Density} bind def
/Pattern6 {0.625 Density} bind def
/Pattern7 {0.875 Density} bind def
} def
%
% Now test for support of Level 2 code
%
Level1 {Level1PatternFill} {Level2PatternFill} ifelse
%
/Symbol-Oblique /Symbol findfont [1 0 .167 1 0 0] makefont
dup length dict begin {1 index /FID eq {pop pop} {def} ifelse} forall
currentdict end definefont pop
Level1 SuppressPDFMark or 
{} {
/SDict 10 dict def
systemdict /pdfmark known not {
  userdict /pdfmark systemdict /cleartomark get put
} if
SDict begin [
  /Title (Rescue.eps)
  /Subject (gnuplot plot)
  /Creator (gnuplot 4.6 patchlevel 4)
  /Author (ujjwal)
%  /Producer (gnuplot)
%  /Keywords ()
  /CreationDate (Mon Sep  8 12:28:15 2014)
  /DOCINFO pdfmark
end
} ifelse
end
%%EndProlog
%%Page: 1 1
gnudict begin
gsave
doclip
50 50 translate
0.050 0.050 scale
0 setgray
newpath
(Helvetica) findfont 200 scalefont setfont
BackgroundColor 0 lt 3 1 roll 0 lt exch 0 lt or or not {BackgroundColor C 1.000 0 0 7200.00 5040.00 BoxColFill} if
1.000 UL
LTb
LCb setrgbcolor
740 640 M
63 0 V
6036 0 R
-63 0 V
620 640 M
( 0) Rshow
1.000 UL
LTb
LCb setrgbcolor
740 1062 M
63 0 V
6036 0 R
-63 0 V
-6156 0 R
( 1) Rshow
1.000 UL
LTb
LCb setrgbcolor
740 1484 M
63 0 V
6036 0 R
-63 0 V
-6156 0 R
( 2) Rshow
1.000 UL
LTb
LCb setrgbcolor
740 1906 M
63 0 V
6036 0 R
-63 0 V
-6156 0 R
( 3) Rshow
1.000 UL
LTb
LCb setrgbcolor
740 2328 M
63 0 V
6036 0 R
-63 0 V
-6156 0 R
( 4) Rshow
1.000 UL
LTb
LCb setrgbcolor
740 2751 M
63 0 V
6036 0 R
-63 0 V
-6156 0 R
( 5) Rshow
1.000 UL
LTb
LCb setrgbcolor
740 3173 M
63 0 V
6036 0 R
-63 0 V
-6156 0 R
( 6) Rshow
1.000 UL
LTb
LCb setrgbcolor
740 3595 M
63 0 V
6036 0 R
-63 0 V
-6156 0 R
( 7) Rshow
1.000 UL
LTb
LCb setrgbcolor
740 4017 M
63 0 V
6036 0 R
-63 0 V
-6156 0 R
( 8) Rshow
1.000 UL
LTb
LCb setrgbcolor
740 4439 M
63 0 V
6036 0 R
-63 0 V
-6156 0 R
( 9) Rshow
1.000 UL
LTb
LCb setrgbcolor
740 640 M
0 63 V
0 3736 R
0 -63 V
740 440 M
( 0) Cshow
1.000 UL
LTb
LCb setrgbcolor
1960 640 M
0 63 V
0 3736 R
0 -63 V
0 -3936 R
( 100000) Cshow
1.000 UL
LTb
LCb setrgbcolor
3180 640 M
0 63 V
0 3736 R
0 -63 V
0 -3936 R
( 200000) Cshow
1.000 UL
LTb
LCb setrgbcolor
4399 640 M
0 63 V
0 3736 R
0 -63 V
0 -3936 R
( 300000) Cshow
1.000 UL
LTb
LCb setrgbcolor
5619 640 M
0 63 V
0 3736 R
0 -63 V
0 -3936 R
( 400000) Cshow
1.000 UL
LTb
LCb setrgbcolor
6839 640 M
0 63 V
0 3736 R
0 -63 V
0 -3936 R
( 500000) Cshow
1.000 UL
LTb
LCb setrgbcolor
1.000 UL
LTb
LCb setrgbcolor
740 4439 N
740 640 L
6099 0 V
0 3799 V
-6099 0 V
Z stroke
LCb setrgbcolor
160 2539 M
currentpoint gsave translate -270 rotate 0 0 M
(Average Return) Cshow
grestore
LTb
LCb setrgbcolor
3789 140 M
(Number of Episodes) Cshow
LTb
3789 4739 M
(Rescue) Cshow
1.000 UP
1.000 UL
LTb
LCb setrgbcolor
% Begin plot #1
1.000 UL
LT0
LC0 setrgbcolor
LCb setrgbcolor
1700 4276 M
(PTree) Rshow
LT0
1820 4276 M
543 0 V
740 640 M
610 229 V
610 704 V
610 769 V
610 420 V
610 315 V
609 221 V
610 249 V
610 163 V
610 111 V
610 105 V
% End plot #1
% Begin plot #2
1.000 UP
stroke
LT1
LC1 setrgbcolor
740 640 M
31 0 V
-31 0 R
31 0 V
579 225 R
0 8 V
-31 -8 R
62 0 V
-62 8 R
62 0 V
579 616 R
0 169 V
-31 -169 R
62 0 V
-62 169 R
62 0 V
579 515 R
0 339 V
-31 -339 R
62 0 V
-62 339 R
62 0 V
579 38 R
0 424 V
-31 -424 R
62 0 V
-62 424 R
62 0 V
579 -119 R
0 443 V
-31 -443 R
62 0 V
-62 443 R
62 0 V
578 -219 R
0 439 V
-31 -439 R
62 0 V
-62 439 R
62 0 V
579 -168 R
0 394 V
-31 -394 R
62 0 V
-62 394 R
62 0 V
579 -221 R
0 375 V
-31 -375 R
62 0 V
-62 375 R
62 0 V
579 -258 R
0 363 V
-31 -363 R
62 0 V
-62 363 R
62 0 V
579 -252 R
0 351 V
-31 -351 R
31 0 V
-31 351 R
31 0 V
740 640 Crs
1350 869 Crs
1960 1573 Crs
2570 2342 Crs
3180 2762 Crs
3790 3077 Crs
4399 3298 Crs
5009 3547 Crs
5619 3710 Crs
6229 3821 Crs
6839 3926 Crs
% End plot #2
% Begin plot #3
1.000 UL
LT2
LC2 setrgbcolor
LCb setrgbcolor
1700 4076 M
(PTree-A) Rshow
LT2
1820 4076 M
543 0 V
740 640 M
610 229 V
610 707 V
610 761 V
610 422 V
610 257 V
609 191 V
610 202 V
610 194 V
610 121 V
610 120 V
% End plot #3
% Begin plot #4
1.000 UP
stroke
LT3
LC3 setrgbcolor
740 640 M
31 0 V
-31 0 R
31 0 V
579 225 R
0 8 V
-31 -8 R
62 0 V
-62 8 R
62 0 V
579 619 R
0 167 V
-31 -167 R
62 0 V
-62 167 R
62 0 V
579 506 R
0 343 V
-31 -343 R
62 0 V
-62 343 R
62 0 V
579 38 R
0 426 V
-31 -426 R
62 0 V
-62 426 R
62 0 V
579 -191 R
0 471 V
-31 -471 R
62 0 V
-62 471 R
62 0 V
578 -283 R
0 476 V
-31 -476 R
62 0 V
-62 476 R
62 0 V
579 -270 R
0 468 V
-31 -468 R
62 0 V
-62 468 R
62 0 V
579 -251 R
0 422 V
-31 -422 R
62 0 V
-62 422 R
62 0 V
579 -295 R
0 411 V
-31 -411 R
62 0 V
-62 411 R
62 0 V
579 -285 R
0 399 V
-31 -399 R
31 0 V
-31 399 R
31 0 V
740 640 Box
1350 869 Box
1960 1576 Box
2570 2337 Box
3180 2759 Box
3790 3016 Box
4399 3207 Box
5009 3409 Box
5619 3603 Box
6229 3724 Box
6839 3844 Box
% End plot #4
% Begin plot #5
1.000 UL
LT4
LC4 setrgbcolor
LCb setrgbcolor
1700 3876 M
(PTree-R) Rshow
LT4
1820 3876 M
543 0 V
740 640 M
610 229 V
610 572 V
610 448 V
610 306 V
610 212 V
609 155 V
610 119 V
610 77 V
610 77 V
610 43 V
% End plot #5
% Begin plot #6
1.000 UP
stroke
LT5
LC5 setrgbcolor
740 640 M
31 0 V
-31 0 R
31 0 V
579 225 R
0 8 V
-31 -8 R
62 0 V
-62 8 R
62 0 V
579 554 R
0 27 V
-31 -27 R
62 0 V
-62 27 R
62 0 V
579 417 R
0 36 V
-31 -36 R
62 0 V
-62 36 R
62 0 V
579 271 R
0 34 V
-31 -34 R
62 0 V
-62 34 R
62 0 V
579 180 R
0 30 V
-31 -30 R
62 0 V
-62 30 R
62 0 V
578 127 R
0 27 V
-31 -27 R
62 0 V
-62 27 R
62 0 V
579 91 R
0 28 V
-31 -28 R
62 0 V
-62 28 R
62 0 V
579 41 R
0 44 V
-31 -44 R
62 0 V
-62 44 R
62 0 V
579 34 R
0 42 V
-31 -42 R
62 0 V
-62 42 R
62 0 V
579 -7 R
0 59 V
-31 -59 R
31 0 V
-31 59 R
31 0 V
740 640 Circle
1350 869 Circle
1960 1441 Circle
2570 1889 Circle
3180 2195 Circle
3790 2407 Circle
4399 2562 Circle
5009 2681 Circle
5619 2758 Circle
6229 2835 Circle
6839 2878 Circle
% End plot #6
% Begin plot #7
1.000 UL
LT6
LC6 setrgbcolor
LCb setrgbcolor
1700 3676 M
(Base) Rshow
LT6
1820 3676 M
543 0 V
740 640 M
610 230 V
610 589 V
610 445 V
610 303 V
610 222 V
609 128 V
610 138 V
610 73 V
610 76 V
610 50 V
% End plot #7
% Begin plot #8
1.000 UP
stroke
LT7
LC7 setrgbcolor
740 640 M
31 0 V
-31 0 R
31 0 V
579 226 R
0 8 V
-31 -8 R
62 0 V
-62 8 R
62 0 V
579 574 R
0 22 V
-31 -22 R
62 0 V
-62 22 R
62 0 V
579 416 R
0 35 V
-31 -35 R
62 0 V
-62 35 R
62 0 V
579 270 R
0 32 V
-31 -32 R
62 0 V
-62 32 R
62 0 V
579 192 R
0 28 V
-31 -28 R
62 0 V
-62 28 R
62 0 V
578 101 R
0 27 V
-31 -27 R
62 0 V
-62 27 R
62 0 V
579 110 R
0 28 V
-31 -28 R
62 0 V
-62 28 R
62 0 V
579 48 R
0 22 V
-31 -22 R
62 0 V
-62 22 R
62 0 V
579 51 R
0 28 V
-31 -28 R
62 0 V
-62 28 R
62 0 V
579 26 R
0 20 V
-31 -20 R
31 0 V
-31 20 R
31 0 V
740 640 TriU
1350 870 TriU
1960 1459 TriU
2570 1904 TriU
3180 2207 TriU
3790 2429 TriU
4399 2557 TriU
5009 2695 TriU
5619 2768 TriU
6229 2844 TriU
6839 2894 TriU
% End plot #8
1.000 UL
LTb
LCb setrgbcolor
740 4439 N
740 640 L
6099 0 V
0 3799 V
-6099 0 V
Z stroke
1.000 UP
1.000 UL
LTb
LCb setrgbcolor
stroke
grestore
end
showpage
