\relax 
\select@language{english}
\@writefile{toc}{\select@language{english}}
\@writefile{lof}{\select@language{english}}
\@writefile{lot}{\select@language{english}}
\citation{ng2006autonomous}
\citation{bellemare2013arcade}
\citation{boyan1995generalization}
\citation{singh1994learning}
\citation{mccallum1996learning}
\citation{au2004automatic}
\citation{uther1998tree}
\citation{dabney2007utile}
\@writefile{toc}{\contentsline {chapter}{\numberline {1}Introduction}{1}}
\@writefile{lof}{\addvspace {10\p@ }}
\@writefile{lot}{\addvspace {10\p@ }}
\newlabel{chapter:introduction}{{1}{1}}
\@writefile{lof}{\contentsline {figure}{\numberline {1.1}{\ignorespaces A simple world, and a corresponding policy tree\relax }}{2}}
\providecommand*\caption@xref[2]{\@setref\relax\@undefined{#1}}
\newlabel{fig:simple_tree}{{1.1}{2}}
\citation{sutton1998introduction}
\citation{puterman2009markov}
\citation{sutton1998introduction}
\@writefile{toc}{\contentsline {chapter}{\numberline {2}The Reinforcement Learning Problem}{4}}
\@writefile{lof}{\addvspace {10\p@ }}
\@writefile{lot}{\addvspace {10\p@ }}
\newlabel{chapter:reinforcement_learning}{{2}{4}}
\@writefile{toc}{\contentsline {section}{\numberline {2.1}The Environment}{4}}
\newlabel{sec:rl_environment}{{2.1}{4}}
\@writefile{toc}{\contentsline {section}{\numberline {2.2}The Agent}{5}}
\newlabel{sec:rl_agent}{{2.2}{5}}
\@writefile{toc}{\contentsline {section}{\numberline {2.3}The Goal}{5}}
\newlabel{sec:rl_goal}{{2.3}{5}}
\newlabel{eq:episodic_return}{{2.1}{5}}
\newlabel{eq:expected_return}{{2.2}{6}}
\citation{williams1992simple}
\citation{baxter2000direct}
\citation{sutton1999policy}
\citation{peters2008natural}
\citation{williams1992simple}
\@writefile{toc}{\contentsline {chapter}{\numberline {3}Policy Gradient}{7}}
\@writefile{lof}{\addvspace {10\p@ }}
\@writefile{lot}{\addvspace {10\p@ }}
\newlabel{chapter:policy_gradient}{{3}{7}}
\@writefile{toc}{\contentsline {section}{\numberline {3.1}The REINFORCE Algorithm}{7}}
\newlabel{eq:trajectory_probability}{{3.1}{7}}
\newlabel{eq:log_trajectory_probability}{{3.2}{8}}
\newlabel{eq:gradient_trajectory_probability}{{3.3}{8}}
\newlabel{eq:gradient_expected_return}{{3.4}{8}}
\newlabel{eq:gradient_expected_return_estimate}{{3.5}{8}}
\citation{williams1992simple}
\citation{baxter2000direct}
\citation{sutton1999policy}
\citation{peters2008reinforcement}
\@writefile{loa}{\contentsline {algorithm}{\numberline {1}{\ignorespaces The REINFORCE algorithm\relax }}{9}}
\newlabel{alg:reinforce}{{1}{9}}
\newlabel{eq:gradient_ascent}{{3.6}{9}}
\@writefile{toc}{\contentsline {section}{\numberline {3.2}The Policy Gradient/GPOMDP Algorithm}{9}}
\citation{baxter2000direct}
\citation{baxter2001infinite}
\newlabel{eq:gradient_expected_return_redefinition}{{3.7}{10}}
\newlabel{eq:prior_reward_independence}{{3.8}{10}}
\newlabel{eq:policy_integrated_over_actions}{{3.9}{10}}
\newlabel{eq:gradient_policy_integrated_over_actions}{{3.10}{10}}
\newlabel{eq:gradient_expected_return_gpomdp}{{3.11}{10}}
\citation{greensmith2004variance}
\@writefile{loa}{\contentsline {algorithm}{\numberline {2}{\ignorespaces The Policy Gradient/GPOMDP algorithm\relax }}{11}}
\newlabel{alg:gpomdp}{{2}{11}}
\@writefile{toc}{\contentsline {section}{\numberline {3.3}Using Baselines to Reduce Variance}{11}}
\newlabel{eq:gradient_expected_return_with_baselines}{{3.13}{11}}
\@writefile{toc}{\contentsline {section}{\numberline {3.4}Policy Parametrizations for Factored State}{11}}
\@writefile{toc}{\contentsline {subsection}{\numberline {3.4.1}Linear Gibbs Softmax Policy}{11}}
\citation{williams1992simple}
\citation{kersting2008non}
\citation{da2014napping}
\newlabel{eq:policy_softmax}{{3.14}{12}}
\@writefile{toc}{\contentsline {subsection}{\numberline {3.4.2}Normally Distributed Policy}{12}}
\newlabel{eq:policy_gaussian}{{3.15}{12}}
\@writefile{toc}{\contentsline {subsection}{\numberline {3.4.3}Multi-Armed Bandit Policy}{12}}
\newlabel{eq:policy_bandit}{{3.16}{12}}
\@writefile{toc}{\contentsline {section}{\numberline {3.5}Non-Parametric Policy Gradients}{12}}
\citation{quinlan1993c4}
\@writefile{toc}{\contentsline {chapter}{\numberline {4}The Policy Tree Algorithm}{14}}
\@writefile{lof}{\addvspace {10\p@ }}
\@writefile{lot}{\addvspace {10\p@ }}
\newlabel{chapter:algorithm}{{4}{14}}
\@writefile{toc}{\contentsline {section}{\numberline {4.1}Notation}{14}}
\@writefile{toc}{\contentsline {section}{\numberline {4.2}Overview of the Policy Tree Algorithm}{15}}
\@writefile{toc}{\contentsline {section}{\numberline {4.3}Parameter Optimization}{15}}
\@writefile{toc}{\contentsline {section}{\numberline {4.4}Tree Growth}{15}}
\newlabel{sec:algorithm_growth}{{4.4}{15}}
\newlabel{eq:fringe_leaf_equality}{{4.1}{16}}
\newlabel{eq:best_fringe}{{4.2}{16}}
\citation{kolmogorov1957elements}
\@writefile{lof}{\contentsline {figure}{\numberline {4.1}{\ignorespaces The $p$-norm spheres representing $||\boldsymbol  {\Delta \theta } ||_p = \epsilon $\relax }}{17}}
\newlabel{fig:norm_sphere}{{4.1}{17}}
\newlabel{eq:gradient_taylor}{{4.3}{17}}
\newlabel{eq:gradient_duality}{{4.4}{17}}
\@writefile{toc}{\contentsline {subsection}{\numberline {4.4.1}Fringe Bias Approximation}{18}}
\@writefile{toc}{\contentsline {chapter}{\numberline {5}Experiments on Policy Tree}{19}}
\@writefile{lof}{\addvspace {10\p@ }}
\@writefile{lot}{\addvspace {10\p@ }}
\newlabel{chapter:experiments}{{5}{19}}
\newlabel{sec:experiments}{{5}{19}}
\@writefile{toc}{\contentsline {section}{\numberline {5.1}Domains}{19}}
\newlabel{sec:experiments_domains}{{5.1}{19}}
\@writefile{lof}{\contentsline {figure}{\numberline {5.1}{\ignorespaces The graphical representation of Monsters\relax }}{20}}
\newlabel{fig:games_monsters}{{5.1}{20}}
\@writefile{toc}{\contentsline {subsection}{\numberline {5.1.1}Monsters}{20}}
\@writefile{toc}{\contentsline {subsection}{\numberline {5.1.2}Switcheroo}{20}}
\@writefile{toc}{\contentsline {subsection}{\numberline {5.1.3}Mothership}{20}}
\@writefile{lof}{\contentsline {figure}{\numberline {5.2}{\ignorespaces The graphical representation of Switcheroo\relax }}{21}}
\newlabel{fig:games_switcheroo}{{5.2}{21}}
\@writefile{lof}{\contentsline {figure}{\numberline {5.3}{\ignorespaces The graphical representation of Mothership\relax }}{21}}
\newlabel{fig:games_mothership}{{5.3}{21}}
\@writefile{lof}{\contentsline {figure}{\numberline {5.4}{\ignorespaces The graphical representation of Rescue\relax }}{22}}
\newlabel{fig:games_rescue}{{5.4}{22}}
\@writefile{toc}{\contentsline {subsection}{\numberline {5.1.4}Rescue}{22}}
\@writefile{toc}{\contentsline {section}{\numberline {5.2}Feature Generation}{22}}
\@writefile{lof}{\contentsline {figure}{\numberline {5.5}{\ignorespaces The feature mapping process.\relax }}{23}}
\newlabel{fig:feature_generation}{{5.5}{23}}
\@writefile{toc}{\contentsline {section}{\numberline {5.3}Base Policy}{23}}
\newlabel{eq:policy_softmax_epsilon_greedy}{{5.1}{23}}
\citation{greensmith2004variance}
\@writefile{toc}{\contentsline {section}{\numberline {5.4}Experimental Setup}{24}}
\@writefile{toc}{\contentsline {section}{\numberline {5.5}Results}{24}}
\newlabel{sec:algorithm_results}{{5.5}{24}}
\@writefile{lof}{\contentsline {figure}{\numberline {5.6}{\ignorespaces Results of the Policy Tree algorithm on Monsters\relax }}{25}}
\newlabel{fig:results_monsters}{{5.6}{25}}
\@writefile{lof}{\contentsline {figure}{\numberline {5.7}{\ignorespaces Results of the Policy Tree algorithm on Switcheroo\relax }}{25}}
\newlabel{fig:results_switcheroo}{{5.7}{25}}
\@writefile{lof}{\contentsline {figure}{\numberline {5.8}{\ignorespaces Results of the Policy Tree algorithm on Mothership\relax }}{26}}
\newlabel{fig:results_mothership}{{5.8}{26}}
\@writefile{lof}{\contentsline {figure}{\numberline {5.9}{\ignorespaces Results of the Policy Tree algorithm on Rescue\relax }}{26}}
\newlabel{fig:results_rescue}{{5.9}{26}}
\@writefile{toc}{\contentsline {chapter}{\numberline {6}The Policy Conjunction Algorithm}{28}}
\@writefile{lof}{\addvspace {10\p@ }}
\@writefile{lot}{\addvspace {10\p@ }}
\newlabel{chapter:policy_conjunction}{{6}{28}}
\@writefile{toc}{\contentsline {section}{\numberline {6.1}A Flat View of the Policy Tree Algorithm}{28}}
\newlabel{eq:leaf_policy_linear}{{6.1}{28}}
\newlabel{eq:tree_policy_linear_with_summation}{{6.2}{29}}
\newlabel{eq:tree_policy_linear}{{6.3}{29}}
\@writefile{toc}{\contentsline {section}{\numberline {6.2}Overview of the Policy Conjunction Algorithm}{29}}
\@writefile{toc}{\contentsline {section}{\numberline {6.3}Adding candidate features}{30}}
\newlabel{sec:policy_conjunction_candidate_features}{{6.3}{30}}
\@writefile{lot}{\contentsline {table}{\numberline {6.1}{\ignorespaces Choice of representation during feature expansion\relax }}{31}}
\newlabel{tab:policy_conjunction_representation_comparision}{{6.1}{31}}
\@writefile{toc}{\contentsline {section}{\numberline {6.4}Modifying the Step Size during Gradient Optimization}{31}}
\newlabel{sec:policy_conjunction_learning_rate}{{6.4}{31}}
\@writefile{toc}{\contentsline {section}{\numberline {6.5}Experiments}{31}}
\@writefile{lof}{\contentsline {figure}{\numberline {6.1}{\ignorespaces Results of the Policy Conjunction algorithm on Monsters\relax }}{32}}
\newlabel{fig:results_conjunction_monsters}{{6.1}{32}}
\@writefile{lof}{\contentsline {figure}{\numberline {6.2}{\ignorespaces Results of the Policy Conjunction algorithm on Switcheroo\relax }}{32}}
\newlabel{fig:results_conjunction_switcheroo}{{6.2}{32}}
\@writefile{lof}{\contentsline {figure}{\numberline {6.3}{\ignorespaces Results of the Policy Conjunction algorithm on Mothership\relax }}{33}}
\newlabel{fig:results_conjunction_mothership}{{6.3}{33}}
\@writefile{lof}{\contentsline {figure}{\numberline {6.4}{\ignorespaces Results of the Policy Conjunction algorithm on Rescue\relax }}{33}}
\newlabel{fig:results_conjunction_rescue}{{6.4}{33}}
\citation{kakade2001natural}
\citation{langford2009sparse}
\@writefile{toc}{\contentsline {chapter}{\numberline {7}Future Work}{35}}
\@writefile{lof}{\addvspace {10\p@ }}
\@writefile{lot}{\addvspace {10\p@ }}
\newlabel{chapter:future_work}{{7}{35}}
\@writefile{toc}{\contentsline {section}{\numberline {7.1}Detecting Convergence of the Phases}{35}}
\@writefile{toc}{\contentsline {section}{\numberline {7.2}Removing Redundant Features/Splits}{35}}
\citation{breiman1984classification}
\citation{jie2010connection}
\@writefile{toc}{\contentsline {section}{\numberline {7.3}Generalizing the Decision Nodes in Policy Tree}{36}}
\@writefile{toc}{\contentsline {section}{\numberline {7.4}Using Off-Policy Experience}{36}}
\@writefile{toc}{\contentsline {chapter}{\numberline {8}Conclusion}{37}}
\@writefile{lof}{\addvspace {10\p@ }}
\@writefile{lot}{\addvspace {10\p@ }}
\newlabel{chapter:conclusion}{{8}{37}}
\bibstyle{apalike}
\bibdata{bibliography}
\bibcite{au2004automatic}{{1}{2004}{{Au and Maire}}{{}}}
\bibcite{baxter2000direct}{{2}{2000}{{Baxter and Bartlett}}{{}}}
\bibcite{baxter2001infinite}{{3}{2001}{{Baxter and Bartlett}}{{}}}
\bibcite{bellemare2013arcade}{{4}{2013}{{Bellemare et~al.}}{{}}}
\bibcite{boyan1995generalization}{{5}{1995}{{Boyan and Moore}}{{}}}
\bibcite{breiman1984classification}{{6}{1984}{{Breiman et~al.}}{{}}}
\bibcite{da2014napping}{{7}{2014}{{Da et~al.}}{{}}}
\bibcite{dabney2007utile}{{8}{2007}{{Dabney and McGovern}}{{}}}
\bibcite{greensmith2004variance}{{9}{2004}{{Greensmith et~al.}}{{}}}
\@writefile{toc}{\contentsline {chapter}{Bibliography}{38}}
\bibcite{jie2010connection}{{10}{2010}{{Jie and Abbeel}}{{}}}
\bibcite{kakade2001natural}{{11}{2001}{{Kakade}}{{}}}
\bibcite{kersting2008non}{{12}{2008}{{Kersting and Driessens}}{{}}}
\bibcite{kolmogorov1957elements}{{13}{1957}{{Kolmogorov and Fomin}}{{}}}
\bibcite{langford2009sparse}{{14}{2009}{{Langford et~al.}}{{}}}
\bibcite{mccallum1996learning}{{15}{1996}{{McCallum}}{{}}}
\bibcite{ng2006autonomous}{{16}{2006}{{Ng et~al.}}{{}}}
\bibcite{peters2008natural}{{17}{2008a}{{Peters and Schaal}}{{}}}
\bibcite{peters2008reinforcement}{{18}{2008b}{{Peters and Schaal}}{{}}}
\bibcite{puterman2009markov}{{19}{2009}{{Puterman}}{{}}}
\bibcite{quinlan1993c4}{{20}{1993}{{Quinlan}}{{}}}
\bibcite{singh1994learning}{{21}{1994}{{Singh et~al.}}{{}}}
\bibcite{sutton1998introduction}{{22}{1998}{{Sutton and Barto}}{{}}}
\bibcite{sutton1999policy}{{23}{2000}{{Sutton et~al.}}{{}}}
\bibcite{uther1998tree}{{24}{1998}{{Uther and Veloso}}{{}}}
\bibcite{williams1992simple}{{25}{1992}{{Williams}}{{}}}
\@input{appendix.aux}
